Id	Titre	Prénom	Nom	Nom	Type	Email	Fonction	Email interne	External uuid	Phone token	Phone token sent at	Phone verified at	Email privé	Téléphone privé	Updated on	Classe
8345		Quentin	AELLEN	AELLEN Quentin	Cpnv::CurrentStudent	Quentin.AELLEN@cpnv.ch	Elève	Quentin.AELLEN@cpnv.ch	203609	700055	13.08.2019 15:04	13.08.2019 15:04		076 541 84 17	13.08.2019	SI-C4b
11297		Adem	AHMETOVIC	AHMETOVIC Adem	Cpnv::CurrentStudent	Adem.AHMETOVIC@cpnv.ch	Elève	Adem.AHMETOVIC@cpnv.ch	199515	823258	22.09.2019 10:11	22.09.2019 10:12		076 434 57 87	22.09.2019	YAD-MI2a
9908		Ioris	AIELLO	AIELLO Ioris	Cpnv::CurrentStudent	Ioris.AIELLO@cpnv.ch	Elève	Ioris.AIELLO@cpnv.ch	211306	85459	03.09.2019 16:57			076 249 34 09	03.09.2019	SM-MI3a
12650		Marwan	ALHELO	ALHELO Marwan	Cpnv::CurrentStudent	Marwan.ALHELO@cpnv.ch	Elève	Marwan.ALHELO@cpnv.ch	162159	852577	17.08.2019 22:54	17.08.2019 22:54		075 416 86 98	17.08.2019	SI-C2a
8352		Joao-Paulo	ALIPIO-PENEDO	ALIPIO-PENEDO Joao-Paulo	Cpnv::CurrentStudent	Joao-Paulo.ALIPIO-PENEDO@cpnv.ch	Elève	Joao-Paulo.ALIPIO-PENEDO@cpnv.ch	203614						02.03.2018	SI-C4b
9918		Paul	ALLEGRO	ALLEGRO Paul	Cpnv::CurrentStudent	Paul.ALLEGRO@cpnv.ch	Elève	Paul.ALLEGRO@cpnv.ch	211308	709874	10.09.2019 11:29	10.09.2019 11:32		077 420 09 29	10.09.2019	SM-MI3a
11309		Bruna-Alexandra	ALMEIDA-MESQUITA	ALMEIDA-MESQUITA Bruna-Alexandra	Cpnv::CurrentStudent	Bruna-Alexandra.ALMEIDA-MESQUITA@cpnv.ch	Elève	Bruna-Alexandra.ALMEIDA-MESQUITA@cpnv.ch	196225	462976	03.09.2019 10:21	03.09.2019 10:25		791978538	03.09.2019	YS-MI2a
11316		Melodie	ALVES-RAMOS	ALVES-RAMOS Melodie	Cpnv::CurrentStudent	Melodie.ALVES-RAMOS@cpnv.ch	Elève	Melodie.ALVES-RAMOS@cpnv.ch	199693	655085	30.08.2019 11:58	30.08.2019 11:59		079 517 49 73	30.08.2019	PCFCM-MI2a
12807		Mathilde	ANGELOZ	ANGELOZ Mathilde	Cpnv::CurrentStudent	Mathilde.ANGELOZ@cpnv.ch	Elève	Mathilde.ANGELOZ@cpnv.ch	113899					078 781 32 12	04.09.2019	PCFCM-MI1a
8369		Marius	ANNEN	ANNEN Marius	Cpnv::CurrentStudent	Marius.ANNEN@cpnv.ch	Elève	Marius.ANNEN@cpnv.ch	109705	689306	30.08.2019 11:59	30.08.2019 12:00		079 281 77 87	30.08.2019	PCFCM-MI2a
11329		Amelie	ANTUNES-DA-SILVA	ANTUNES-DA-SILVA Amelie	Cpnv::CurrentStudent	Amelie.ANTUNES-DA-SILVA@cpnv.ch	Elève	Amelie.ANTUNES-DA-SILVA@cpnv.ch	198570	856582	30.08.2019 11:58	30.08.2019 11:59		078 903 87 90	30.08.2019	PCFCM-MI2a
8375		David	ARIAS	ARIAS David	Cpnv::CurrentStudent	David.ARIAS@cpnv.ch	Elève	David.ARIAS@cpnv.ch	202905					078 648 62 60	29.10.2018	YA-MI4a
8379		Yoan	AUBERSON	AUBERSON Yoan	Cpnv::CurrentStudent	Yoan.AUBERSON@cpnv.ch	Elève	Yoan.AUBERSON@cpnv.ch	203007	547793	05.09.2019 14:16	05.09.2019 14:16		079 108 62 76	05.09.2019	YE-MI4a
12822		Kenan	AUGSBURGER	AUGSBURGER Kenan	Cpnv::CurrentStudent	Kenan.AUGSBURGER@cpnv.ch	Elève	Kenan.AUGSBURGER@cpnv.ch	189986	268099	26.08.2019 11:39	26.08.2019 11:39		41774632411	26.08.2019	SI-MI1a
13978		Thomas	BACHMANN	BACHMANN Thomas	Cpnv::CurrentStudent	Thomas.BACHMANN@cpnv.ch	Elève	Thomas.BACHMANN@cpnv.ch	224632	109342	30.09.2019 13:16	30.09.2019 13:19		791544553	30.09.2019	YA-MI1a
9957		David	BALET	BALET David	Cpnv::CurrentStudent	David.BALET@cpnv.ch	Elève	David.BALET@cpnv.ch	129399	582707	03.06.2019 08:46	03.06.2019 08:46		079 799 77 19	03.06.2019	YCFCM-MI3a
9960		Gradi	BAMBOKELA	BAMBOKELA Gradi	Cpnv::CurrentStudent	Gradi.BAMBOKELA@cpnv.ch	Elève	Gradi.BAMBOKELA@cpnv.ch	211468	845688	26.08.2019 14:29	26.08.2019 14:31		079 105 9664	26.08.2019	YE-MI2a
11355		Isaac	BAMELE	BAMELE Isaac	Cpnv::CurrentStudent	Isaac.BAMELE@cpnv.ch	Elève	Isaac.BAMELE@cpnv.ch	167570					079 295 26 36	13.09.2018	YCFCM-MI2a
12850		Lolita	BARRAS	BARRAS Lolita	Cpnv::CurrentStudent	Lolita.BARRAS@cpnv.ch	Elève	Lolita.BARRAS@cpnv.ch	188475					079 504 53 59	04.09.2019	PCFCM-MI1a
11363		Laurent	BARRAUD	BARRAUD Laurent	Cpnv::CurrentStudent	Laurent.BARRAUD@cpnv.ch	Elève	Laurent.BARRAUD@cpnv.ch	217913					078 676 87 29	27.08.2018	SI-CA2a
7093		Alexandre	BASEIA	BASEIA Alexandre	Cpnv::CurrentStudent	Alexandre.BASEIA@cpnv.ch	Elève	Alexandre.BASEIA@cpnv.ch	166492					788634181	30.08.2019	SI-C4a
9967		Jordane	BASSET	BASSET Jordane	Cpnv::CurrentStudent	Jordane.BASSET@cpnv.ch	Elève	Jordane.BASSET@cpnv.ch	138113	316202	05.09.2019 10:52	05.09.2019 10:53		079 193 90 40	05.09.2019	YCFCM-MI3a
9968		Luca	BASSI	BASSI Luca	Cpnv::CurrentStudent	Luca.BASSI@cpnv.ch	Elève	Luca.BASSI@cpnv.ch	62955	315973	29.08.2019 09:19	29.08.2019 09:20		076 588 08 91	29.08.2019	SI-C2b
9974		Yannick	BAUDRAZ	BAUDRAZ Yannick	Cpnv::CurrentStudent	Yannick.BAUDRAZ@cpnv.ch	Elève	Yannick.BAUDRAZ@cpnv.ch	156463	699540	27.08.2019 08:29	27.08.2019 08:29		794773326	27.08.2019	SI-C3a
11039		Chloe	BEAUD	BEAUD Chloe	Cpnv::CurrentStudent	Chloe.BEAUD@cpnv.ch	Elève	Chloe.BEAUD@cpnv.ch	158063	377428	02.09.2019 14:18	02.09.2019 14:19		079 656 03 51	02.09.2019	YS-MI3a
12863		Pierre-Elie	BELAICH	BELAICH Pierre-Elie	Cpnv::CurrentStudent	Pierre-Elie.BELAICH@cpnv.ch	Elève	Pierre-Elie.BELAICH@cpnv.ch	223311	930118	04.10.2019 08:30	04.10.2019 08:31		762094843	04.10.2019	YA-MI1a
3462		Lucien	BENDER	BENDER Lucien	Cpnv::CurrentStudent	Lucien.BENDER@cpnv.ch	Elève	Lucien.BENDER@cpnv.ch	3194	9916	03.09.2019 10:31	03.09.2019 10:35		796812629	03.09.2019	YS-MI2a
11394		Ophelie	BERARD	BERARD Ophelie	Cpnv::CurrentStudent	Ophelie.BERARD@cpnv.ch	Elève	Ophelie.BERARD@cpnv.ch	197954	300994	27.08.2019 08:30	27.08.2019 08:30		079 932 71 15	27.08.2019	YCFCM-MI2a
12868		Nicolas	BERDOZ	BERDOZ Nicolas	Cpnv::CurrentStudent	Nicolas.BERDOZ@cpnv.ch	Elève	Nicolas.BERDOZ@cpnv.ch	188897					077 435 23 77	09.09.2019	SM-MI1c
9984		Claudia	BERGER	BERGER Claudia	Cpnv::CurrentStudent	Claudia.BERGER@cpnv.ch	Elève	Claudia.BERGER@cpnv.ch	131043	643964	05.09.2019 10:53	05.09.2019 10:53		079 341 72 00	05.09.2019	YCFCM-MI3a
12874		Robin	BERNARDI	BERNARDI Robin	Cpnv::CurrentStudent	Robin.BERNARDI@cpnv.ch	Elève	Robin.BERNARDI@cpnv.ch	190008	107450	06.09.2019 15:02	06.09.2019 15:02		078 614 13 27	06.09.2019	SP-MI1a
9990		Dylan	BERNEY	BERNEY Dylan	Cpnv::CurrentStudent	Dylan.BERNEY@cpnv.ch	Elève	Dylan.BERNEY@cpnv.ch	156465	45815	29.08.2019 09:20	29.08.2019 09:21		079 474 18 35	29.08.2019	SI-C2b
12877		Romain	BERTHOUD	BERTHOUD Romain	Cpnv::CurrentStudent	Romain.BERTHOUD@cpnv.ch	Elève	Romain.BERTHOUD@cpnv.ch	191150	225123	29.08.2019 14:39	29.08.2019 14:40		775218824	26.09.2019	YAD-MI1a
11409		Alexandra	BESSON	BESSON Alexandra	Cpnv::CurrentStudent	Alexandra.BESSON@cpnv.ch	Elève	Alexandra.BESSON@cpnv.ch	199877					076 504 11 74	13.09.2018	YCFCM-MI2a
12881		Jordane	BETRIX	BETRIX Jordane	Cpnv::CurrentStudent	Jordane.BETRIX@cpnv.ch	Elève	Jordane.BETRIX@cpnv.ch	92570					078 624 85 02 	29.08.2019	YE-MI1a
11411		Mateo	BEUTLER	BEUTLER Mateo	Cpnv::CurrentStudent	Mateo.BEUTLER@cpnv.ch	Elève	Mateo.BEUTLER@cpnv.ch	167897	755160	13.09.2019 10:52	13.09.2019 10:52		079 888 34 36	13.09.2019	PCFCM-MI2a
12884		Mikolaj	BIELEC	BIELEC Mikolaj	Cpnv::CurrentStudent	Mikolaj.BIELEC@cpnv.ch	Elève	Mikolaj.BIELEC@cpnv.ch	189933	118593	30.09.2019 14:20	30.09.2019 14:21		767331906	30.09.2019	YA-MI1a
10006		Jan	BLATTER	BLATTER Jan	Cpnv::CurrentStudent	Jan.BLATTER@cpnv.ch	Elève	Jan.BLATTER@cpnv.ch	211924	503062	19.06.2019 08:21	19.06.2019 08:22		076 307 56 19	19.06.2019	SI-C2b
11426		Roman	BON	BON Roman	Cpnv::CurrentStudent	Roman.BON@cpnv.ch	Elève	Roman.BON@cpnv.ch	199141	864104	29.08.2019 11:01	29.08.2019 11:02		791049576	29.08.2019	YA-MI2a
11434		Yoann	BONZON	BONZON Yoann	Cpnv::CurrentStudent	Yoann.BONZON@cpnv.ch	Elève	Yoann.BONZON@cpnv.ch	217226	46582	26.08.2019 11:37	26.08.2019 11:38		079 967 67 58	26.08.2019	SI-C1a
11261		Jessy	BORCARD	BORCARD Jessy	Cpnv::CurrentStudent	Jessy.BORCARD@cpnv.ch	Elève	Jessy.BORCARD@cpnv.ch	216778	710370	29.08.2019 09:18	29.08.2019 09:19		078 912 32 41	29.08.2019	SI-C2b
10018		Valentino	BORNANCINI	BORNANCINI Valentino	Cpnv::CurrentStudent	Valentino.BORNANCINI@cpnv.ch	Elève	Valentino.BORNANCINI@cpnv.ch	211465	99688	28.05.2019 16:38	28.05.2019 16:38		076 563 3177	28.05.2019	YE-MI3a
11437		Luca	BORRELLO	BORRELLO Luca	Cpnv::CurrentStudent	Luca.BORRELLO@cpnv.ch	Elève	Luca.BORRELLO@cpnv.ch	166309	438182	23.09.2019 08:47	23.09.2019 08:48		079 947 71 81	23.09.2019	YAD-MI2a
12901		Jean-Amedee	BOSCH	BOSCH Jean-Amedee	Cpnv::CurrentStudent	Jean-Amedee.BOSCH@cpnv.ch	Elève	Jean-Amedee.BOSCH@cpnv.ch	189017	651454	06.09.2019 16:32	06.09.2019 16:32		798683958	06.09.2019	SI-C1a
11442		Arthur	BOURGUE	BOURGUE Arthur	Cpnv::CurrentStudent	Arthur.BOURGUE@cpnv.ch	Elève	Arthur.BOURGUE@cpnv.ch	216780	316954	29.08.2019 09:22	29.08.2019 09:22		079 153 81 31	29.08.2019	SI-C2b
12907		Mathias	BOURQUI	BOURQUI Mathias	Cpnv::CurrentStudent	Mathias.BOURQUI@cpnv.ch	Elève	Mathias.BOURQUI@cpnv.ch	189014	411322	26.08.2019 11:44	26.08.2019 11:45		793204729	26.08.2019	SI-C1a
11444		Alexia	BOUTOVITCH	BOUTOVITCH Alexia	Cpnv::CurrentStudent	Alexia.BOUTOVITCH@cpnv.ch	Elève	Alexia.BOUTOVITCH@cpnv.ch	194776	603686	03.09.2019 10:23	03.09.2019 10:27		788687244	03.09.2019	YS-MI2a
10026		Jenny	BRAND	BRAND Jenny	Cpnv::CurrentStudent	Jenny.BRAND@cpnv.ch	Elève	Jenny.BRAND@cpnv.ch	132376	742628	05.09.2019 10:54	05.09.2019 10:54		078 831 86 15	05.09.2019	YCFCM-MI3a
11042		Matthieu	BRECHBUHLER	BRECHBUHLER Matthieu	Cpnv::CurrentStudent	Matthieu.BRECHBUHLER@cpnv.ch	Elève	Matthieu.BRECHBUHLER@cpnv.ch	151545	477027	05.09.2019 10:54	05.09.2019 10:55		079 429 16 17	05.09.2019	YCFCM-MI3a
11453		Quinten	BRODMANN	BRODMANN Quinten	Cpnv::CurrentStudent	Quinten.BRODMANN@cpnv.ch	Elève	Quinten.BRODMANN@cpnv.ch	216522	110117	26.08.2019 17:26	26.08.2019 17:26		079 452 97 59	26.08.2019	SM-MI2b
13979		Robin	BRULHART	BRULHART Robin	Cpnv::CurrentStudent	Robin.BRULHART@cpnv.ch	Elève	Robin.BRULHART@cpnv.ch	71863	180106	13.09.2019 10:51	13.09.2019 10:51		078 676 81 30	13.09.2019	PCFCM-MI2a
8479		Didier	BURKHARD-LOPEZ	BURKHARD-LOPEZ Didier	Cpnv::CurrentStudent	Didier.BURKHARD-LOPEZ@cpnv.ch	Elève	Didier.BURKHARD-LOPEZ@cpnv.ch	202915	228317	26.08.2019 10:10	26.08.2019 10:10		077 420 94 95	26.08.2019	YA-MI4a
10051		Anael-Yakim	BUSSY	BUSSY Anael-Yakim	Cpnv::CurrentStudent	Anael-Yakim.BUSSY@cpnv.ch	Elève	Anael-Yakim.BUSSY@cpnv.ch	147849	580102	26.08.2019 10:27	26.08.2019 10:28		788656479	26.08.2019	YBMEN-MI3a
12930		Vicky	BUTTY	BUTTY Vicky	Cpnv::CurrentStudent	Vicky.BUTTY@cpnv.ch	Elève	Vicky.BUTTY@cpnv.ch	223277	105650	26.08.2019 11:30	26.08.2019 11:30		764014814	26.08.2019	SI-CA1a
12933		Jose-Francisco-Pedro	CAHUNGO	CAHUNGO Jose-Francisco-Pedro	Cpnv::CurrentStudent	Jose-Francisco-Pedro.CAHUNGO@cpnv.ch	Elève	Jose-Francisco-Pedro.CAHUNGO@cpnv.ch	187480	573292	16.09.2019 20:03	16.09.2019 20:03		077 521 63 32	16.09.2019	PCFCM-MI2a
8484		Vincent	CAIAZZA	CAIAZZA Vincent	Cpnv::CurrentStudent	Vincent.CAIAZZA@cpnv.ch	Elève	Vincent.CAIAZZA@cpnv.ch	104974	951912	29.08.2019 16:08	29.08.2019 16:09		079 413 08 87 	29.08.2019	YMMED-MI4a
12935		Nolan	CAMPANA	CAMPANA Nolan	Cpnv::CurrentStudent	Nolan.CAMPANA@cpnv.ch	Elève	Nolan.CAMPANA@cpnv.ch	189077	343796	03.09.2019 15:08	03.09.2019 15:09		079 850 78 69	03.09.2019	YCFCM-MI1a
10057		Cyril	CANTIN	CANTIN Cyril	Cpnv::CurrentStudent	Cyril.CANTIN@cpnv.ch	Elève	Cyril.CANTIN@cpnv.ch	132351	978698	30.08.2019 16:50	30.08.2019 16:50		079 370 50 77	30.08.2019	PCFCM-MI3a
10062		Jonathan	CARRARD	CARRARD Jonathan	Cpnv::CurrentStudent	Jonathan.CARRARD@cpnv.ch	Elève	Jonathan.CARRARD@cpnv.ch	141277	382756	05.09.2019 10:55	05.09.2019 10:56		078 956 72 12	05.09.2019	YCFCM-MI3a
11471		Chloe	CARREZ	CARREZ Chloe	Cpnv::CurrentStudent	Chloe.CARREZ@cpnv.ch	Elève	Chloe.CARREZ@cpnv.ch	199968					078 676 80 96	13.09.2018	YCFCM-MI2a
12945		Alexandra	CARVALHO-BARROSO	CARVALHO-BARROSO Alexandra	Cpnv::CurrentStudent	Alexandra.CARVALHO-BARROSO@cpnv.ch	Elève	Alexandra.CARVALHO-BARROSO@cpnv.ch	188145					076 568 98 86	04.09.2019	PCFCM-MI1a
11475		Lorenzo-Mario	CASANOVA	CASANOVA Lorenzo-Mario	Cpnv::CurrentStudent	Lorenzo-Mario.CASANOVA@cpnv.ch	Elève	Lorenzo-Mario.CASANOVA@cpnv.ch	162177	983865	10.09.2019 18:45	10.09.2019 18:45		077 459 94 05	10.09.2019	YAD-MI2a
8508		Glenn	CATALDO	CATALDO Glenn	Cpnv::CurrentStudent	Glenn.CATALDO@cpnv.ch	Elève	Glenn.CATALDO@cpnv.ch	107850					079 259 97 79	29.10.2018	YAD-MI4a
8509		Jimmy	CATARINO-DINIS	CATARINO-DINIS Jimmy	Cpnv::CurrentStudent	Jimmy.CATARINO-DINIS@cpnv.ch	Elève	Jimmy.CATARINO-DINIS@cpnv.ch	203624						02.03.2018	SI-C4b
12953		Mathilde	CATILLAZ	CATILLAZ Mathilde	Cpnv::CurrentStudent	Mathilde.CATILLAZ@cpnv.ch	Elève	Mathilde.CATILLAZ@cpnv.ch	189380					079 783 97 50	04.09.2019	PCFCM-MI1a
11485		Milos	CEROVIC	CEROVIC Milos	Cpnv::CurrentStudent	Milos.CEROVIC@cpnv.ch	Elève	Milos.CEROVIC@cpnv.ch	217914					076 328 44 81	27.08.2018	SI-CA2a
13981		Joao-Pedro	CERQUEIRA-OLIVEIRA	CERQUEIRA-OLIVEIRA Joao-Pedro	Cpnv::CurrentStudent	Joao-Pedro.CERQUEIRA-OLIVEIRA@cpnv.ch	Elève	Joao-Pedro.CERQUEIRA-OLIVEIRA@cpnv.ch	203554	875496	03.09.2019 15:10	03.09.2019 15:10		079 175 77 17	03.09.2019	YCFCM-MI1a
11487		Bastien	CHAIGNAT	CHAIGNAT Bastien	Cpnv::CurrentStudent	Bastien.CHAIGNAT@cpnv.ch	Elève	Bastien.CHAIGNAT@cpnv.ch	199688	888123	23.09.2019 08:49	23.09.2019 08:49		079 269 84 36	23.09.2019	YAD-MI2a
5779		Selim	CHAJAI	CHAJAI Selim	Cpnv::CurrentStudent	Selim.CHAJAI@cpnv.ch	Elève	Selim.CHAJAI@cpnv.ch	154635	947147	29.08.2019 13:28	29.08.2019 13:29		762102463	29.08.2019	YS-MI1a
11501		Damien	CHERVET	CHERVET Damien	Cpnv::CurrentStudent	Damien.CHERVET@cpnv.ch	Elève	Damien.CHERVET@cpnv.ch	165387						07.01.2019	SI-C3b
11502		Melody	CHEVALLIER	CHEVALLIER Melody	Cpnv::CurrentStudent	Melody.CHEVALLIER@cpnv.ch	Elève	Melody.CHEVALLIER@cpnv.ch	194524					076 681 99 05	13.09.2018	YCFCM-MI2a
11504		Bastian	CHOLLET	CHOLLET Bastian	Cpnv::CurrentStudent	Bastian.CHOLLET@cpnv.ch	Elève	Bastian.CHOLLET@cpnv.ch	217773					079 784 31 20	27.08.2018	SI-CA2a
12984		Albin	CHUARD	CHUARD Albin	Cpnv::CurrentStudent	Albin.CHUARD@cpnv.ch	Elève	Albin.CHUARD@cpnv.ch	189150					078 773 67 11	29.08.2019	YE-MI1a
12985		John	CLEMENT	CLEMENT John	Cpnv::CurrentStudent	John.CLEMENT@cpnv.ch	Elève	John.CLEMENT@cpnv.ch	188236					079 904 39 19	04.09.2019	PCFCM-MI1a
8537		Ian	CLOT	CLOT Ian	Cpnv::CurrentStudent	Ian.CLOT@cpnv.ch	Elève	Ian.CLOT@cpnv.ch	202805					076 500 64 04	28.08.2019	SP-MI4a
11513		Luca	CODURI	CODURI Luca	Cpnv::CurrentStudent	Luca.CODURI@cpnv.ch	Elève	Luca.CODURI@cpnv.ch	217916					079 835 60 66	27.08.2018	SI-CA2a
12986		Theo	COELHO	COELHO Theo	Cpnv::CurrentStudent	Theo.COELHO@cpnv.ch	Elève	Theo.COELHO@cpnv.ch	189818	312677	30.08.2019 17:54	30.08.2019 17:54		077 482 97 71	30.08.2019	YCFCM-MI1a
12988		Senad	COHADAREVIC	COHADAREVIC Senad	Cpnv::CurrentStudent	Senad.COHADAREVIC@cpnv.ch	Elève	Senad.COHADAREVIC@cpnv.ch	190014	173243	06.09.2019 15:03	06.09.2019 15:03		076 268 82 35	06.09.2019	SP-MI1a
11516		Carmen	COIGNY	COIGNY Carmen	Cpnv::CurrentStudent	Carmen.COIGNY@cpnv.ch	Elève	Carmen.COIGNY@cpnv.ch	193833	368894	03.09.2019 10:34	03.09.2019 10:39		763720206	03.09.2019	YS-MI2a
12993		Nathanael	COLLAUD	COLLAUD Nathanael	Cpnv::CurrentStudent	Nathanael.COLLAUD@cpnv.ch	Elève	Nathanael.COLLAUD@cpnv.ch	189987	890129	26.08.2019 11:59	26.08.2019 11:59		786680474	26.08.2019	SI-MI1a
12999		Lancelot	CONOD	CONOD Lancelot	Cpnv::CurrentStudent	Lancelot.CONOD@cpnv.ch	Elève	Lancelot.CONOD@cpnv.ch	189914	820209	30.09.2019 13:46	30.09.2019 13:47		787137859	30.09.2019	YA-MI1a
8543		John	CONSTANTIN	CONSTANTIN John	Cpnv::CurrentStudent	John.CONSTANTIN@cpnv.ch	Elève	John.CONSTANTIN@cpnv.ch	108146					079 954 66 88	29.10.2018	YAD-MI4a
10095		Theo	COOK	COOK Theo	Cpnv::CurrentStudent	Theo.COOK@cpnv.ch	Elève	Theo.COOK@cpnv.ch	211015	29882	27.08.2019 08:28	27.08.2019 08:30		798894850	27.08.2019	SI-MI3a
10100		Lena	CORMINBOEUF	CORMINBOEUF Lena	Cpnv::CurrentStudent	Lena.CORMINBOEUF@cpnv.ch	Elève	Lena.CORMINBOEUF@cpnv.ch	130156	49938	28.08.2019 09:15	28.08.2019 09:16		079 881 36 18	28.08.2019	YMMED-MI3a
13004		Luke	CORNAZ	CORNAZ Luke	Cpnv::CurrentStudent	Luke.CORNAZ@cpnv.ch	Elève	Luke.CORNAZ@cpnv.ch	189011	541278	26.08.2019 11:44	26.08.2019 11:46		793463162	26.08.2019	SI-C1a
13005		Alexandre	CORNU	CORNU Alexandre	Cpnv::CurrentStudent	Alexandre.CORNU@cpnv.ch	Elève	Alexandre.CORNU@cpnv.ch	183900	159838	07.10.2019 23:15	07.10.2019 23:15		079 196 33 95	07.10.2019	YCFCM-MI1a
10102		Elodie	CORREIA	CORREIA Elodie	Cpnv::CurrentStudent	Elodie.CORREIA@cpnv.ch	Elève	Elodie.CORREIA@cpnv.ch	145380	306945	02.09.2019 14:14	02.09.2019 14:14		079 713 59 88	02.09.2019	YS-MI3a
11526		Jeremy	CORREVON	CORREVON Jeremy	Cpnv::CurrentStudent	Jeremy.CORREVON@cpnv.ch	Elève	Jeremy.CORREVON@cpnv.ch	196419					078 639 06 67	13.09.2018	YCFCM-MI2a
11529		Theo	CORTHESY	CORTHESY Theo	Cpnv::CurrentStudent	Theo.CORTHESY@cpnv.ch	Elève	Theo.CORTHESY@cpnv.ch	198694	461205	29.08.2019 10:57	29.08.2019 10:59		789637573	29.08.2019	YA-MI2a
13013		Paola	COSTA	COSTA Paola	Cpnv::CurrentStudent	Paola.COSTA@cpnv.ch	Elève	Paola.COSTA@cpnv.ch	223278	366575	26.08.2019 11:28	26.08.2019 11:29		799435950	26.08.2019	SI-CA1a
11531		Mauricio	COSTA-CABRAL	COSTA-CABRAL Mauricio	Cpnv::CurrentStudent	Mauricio.COSTA-CABRAL@cpnv.ch	Elève	Mauricio.COSTA-CABRAL@cpnv.ch	132590	256283	03.09.2019 13:36	03.09.2019 13:36		076 449 18 31	03.09.2019	SI-CA2a
8552		Mauro-Alexandre	COSTA-DOS-SANTOS	COSTA-DOS-SANTOS Mauro-Alexandre	Cpnv::CurrentStudent	Mauro-Alexandre.COSTA-DOS-SANTOS@cpnv.ch	Elève	Mauro-Alexandre.COSTA-DOS-SANTOS@cpnv.ch	205432	794380	27.08.2019 08:29	27.08.2019 08:29		763769120	27.08.2019	SI-C3a
11534		Aline	COUCET	COUCET Aline	Cpnv::CurrentStudent	Aline.COUCET@cpnv.ch	Elève	Aline.COUCET@cpnv.ch	199383	864812	30.08.2019 11:58	30.08.2019 11:58		079 593 55 32	30.08.2019	PCFCM-MI2a
8556		Noe	COURT	COURT Noe	Cpnv::CurrentStudent	Noe.COURT@cpnv.ch	Elève	Noe.COURT@cpnv.ch	202918	260274	26.09.2019 11:52	26.09.2019 11:53		078 886 30 15	26.09.2019	YA-MI4a
7229		Jason	CRISANTE	CRISANTE Jason	Cpnv::CurrentStudent	Jason.CRISANTE@cpnv.ch	Elève	Jason.CRISANTE@cpnv.ch	164758	618162	08.06.2019 09:03	08.06.2019 09:03		079 459 39 51 	08.06.2019	SI-C4b
11544		Simon	CUANY	CUANY Simon	Cpnv::CurrentStudent	Simon.CUANY@cpnv.ch	Elève	Simon.CUANY@cpnv.ch	216783	450958	20.05.2019 10:49	20.05.2019 10:50		079 856 84 05	20.05.2019	SI-C2a
10114		Dylan-David	CUNHA-ROCHA	CUNHA-ROCHA Dylan-David	Cpnv::CurrentStudent	Dylan-David.CUNHA-ROCHA@cpnv.ch	Elève	Dylan-David.CUNHA-ROCHA@cpnv.ch	156459	391634	29.08.2019 09:24	29.08.2019 09:24		787444990	29.08.2019	SI-C2b
10116		Natacha	CURTY	CURTY Natacha	Cpnv::CurrentStudent	Natacha.CURTY@cpnv.ch	Elève	Natacha.CURTY@cpnv.ch	203910	244206	28.08.2019 09:13	28.08.2019 09:14		079 401 26 86	28.08.2019	YMMED-MI3a
13047		Luca	DALMAS	DALMAS Luca	Cpnv::CurrentStudent	Luca.DALMAS@cpnv.ch	Elève	Luca.DALMAS@cpnv.ch	189888					079 965 68 28	29.08.2019	YE-MI1a
8582		Lucas-Guillaume	DAVID	DAVID Lucas-Guillaume	Cpnv::CurrentStudent	Lucas-Guillaume.DAVID@cpnv.ch	Elève	Lucas-Guillaume.DAVID@cpnv.ch	203635	776813	05.09.2019 10:56	05.09.2019 10:56		079 768 18 74	05.09.2019	YCFCM-MI3a
13051		Romain	DAVID	DAVID Romain	Cpnv::CurrentStudent	Romain.DAVID@cpnv.ch	Elève	Romain.DAVID@cpnv.ch	188893	337022	26.08.2019 13:54	26.08.2019 13:55		795361918	26.08.2019	SM-MI1b
14027		Kevin	DE-ALMEIDA-GOMES	DE-ALMEIDA-GOMES Kevin	Cpnv::CurrentStudent	Kevin.DE-ALMEIDA-GOMES@cpnv.ch	Elève	Kevin.DE-ALMEIDA-GOMES@cpnv.ch	224702	979609	26.08.2019 10:59	26.08.2019 11:00		768223262	26.08.2019	SI-C1b
8585		Yann-Xavier	DE-BERNARDIS	DE-BERNARDIS Yann-Xavier	Cpnv::CurrentStudent	Yann-Xavier.DE-BERNARDIS@cpnv.ch	Elève	Yann-Xavier.DE-BERNARDIS@cpnv.ch	107362	238784	30.07.2019 10:59	30.07.2019 10:59		078 745 97 98	30.07.2019	YAD-MI4a
10143		Guilherme	DE-OLIVEIRA-CALHAU	DE-OLIVEIRA-CALHAU Guilherme	Cpnv::CurrentStudent	Guilherme.CALHAU@cpnv.ch	Elève	Guilherme.CALHAU@cpnv.ch	211029	11830	27.08.2019 08:31	27.08.2019 08:32		799432502	27.08.2019	SI-C3a
13062		Pierre	DEBAZ	DEBAZ Pierre	Cpnv::CurrentStudent	Pierre.DEBAZ@cpnv.ch	Elève	Pierre.DEBAZ@cpnv.ch	191119					079 699 97 51	04.09.2019	PCFCM-MI1a
8591		Joris	DECOPPET	DECOPPET Joris	Cpnv::CurrentStudent	Joris.DECOPPET@cpnv.ch	Elève	Joris.DECOPPET@cpnv.ch	203557	462685	17.09.2019 14:01	17.09.2019 14:02		774574977	17.09.2019	SI-MI4a
13070		Sven	DELADOEY	DELADOEY Sven	Cpnv::CurrentStudent	Sven.DELADOEY@cpnv.ch	Elève	Sven.DELADOEY@cpnv.ch	189983	950795	30.09.2019 09:56	30.09.2019 09:56		774660659	30.09.2019	YA-MI1a
8599		Benoit	DELAY	DELAY Benoit	Cpnv::CurrentStudent	Benoit.DELAY@cpnv.ch	Elève	Benoit.DELAY@cpnv.ch	203040	498586	04.09.2019 16:54	04.09.2019 16:55		079 268 54 18	04.09.2019	YE-MI4a
11583		Evan	DELESSERT	DELESSERT Evan	Cpnv::CurrentStudent	Evan.DELESSERT@cpnv.ch	Elève	Evan.DELESSERT@cpnv.ch	167099					079 132 36 72	18.09.2018	YCFCM-MI2a
8604		Nolan	DENERVAUD	DENERVAUD Nolan	Cpnv::CurrentStudent	Nolan.DENERVAUD@cpnv.ch	Elève	Nolan.DENERVAUD@cpnv.ch	203043					076 393 49 02	29.10.2018	YE-MI4a
11597		Celine	DENERVAUD	DENERVAUD Celine	Cpnv::CurrentStudent	Celine.DENERVAUD@cpnv.ch	Elève	Celine.DENERVAUD@cpnv.ch	89192	429723	30.08.2019 12:01	30.08.2019 12:01		079 903 80 25	30.08.2019	PCFCM-MI2a
11603		Arthur	DESPLAN	DESPLAN Arthur	Cpnv::CurrentStudent	Arthur.DESPLAN@cpnv.ch	Elève	Arthur.DESPLAN@cpnv.ch	198415	93033	03.09.2019 10:36	03.09.2019 10:36		789505475	03.09.2019	YS-MI2a
11605		Aurelia	DESSIEX	DESSIEX Aurelia	Cpnv::CurrentStudent	Aurelia.DESSIEX@cpnv.ch	Elève	Aurelia.DESSIEX@cpnv.ch	198133	524148	30.08.2019 11:58	30.08.2019 11:58		079 310 44 40	30.08.2019	PCFCM-MI2a
10173		Sacha	DI-FIORE	DI-FIORE Sacha	Cpnv::CurrentStudent	Sacha.DI-FIORE@cpnv.ch	Elève	Sacha.DI-FIORE@cpnv.ch	211031	511070	25.08.2019 20:57			078 858 77 34	25.08.2019	YCFCM-MI2a
12479		Remy	DI-GIOVANNI	DI-GIOVANNI Remy	Cpnv::CurrentStudent	Remy.DI-GIOVANNI@cpnv.ch	Elève	Remy.DI-GIOVANNI@cpnv.ch	193342	382853	27.08.2019 09:39	27.08.2019 09:40		079 619 6842	27.08.2019	YE-MI2a
10180		Andjela	DJORDJEVIC	DJORDJEVIC Andjela	Cpnv::CurrentStudent	Andjela.DJORDJEVIC@cpnv.ch	Elève	Andjela.DJORDJEVIC@cpnv.ch	131166	624547	05.09.2019 10:56	05.09.2019 10:57		078 796 60 77	05.09.2019	YCFCM-MI3a
12565		Dylan	DOS-SANTOS-VENANCIO	DOS-SANTOS-VENANCIO Dylan	Cpnv::CurrentStudent	Dylan.DOS-SANTOS-VENANCIO@cpnv.ch	Elève	Dylan.DOS-SANTOS-VENANCIO@cpnv.ch	166846	120900	13.09.2019 10:51	13.09.2019 10:51		079 175 54 47	13.09.2019	PCFCM-MI2a
13106		Abel	DROZ	DROZ Abel	Cpnv::CurrentStudent	Abel.DROZ@cpnv.ch	Elève	Abel.DROZ@cpnv.ch	223326					077 458 10 71	02.09.2019	SP-MI1a
13109		David	DUBEY	DUBEY David	Cpnv::CurrentStudent	David.DUBEY@cpnv.ch	Elève	David.DUBEY@cpnv.ch	223279	915052	26.08.2019 11:30	26.08.2019 11:30		794553164	26.08.2019	SI-CA1a
13111		Alexandre	DUBRULLE	DUBRULLE Alexandre	Cpnv::CurrentStudent	Alexandre.DUBRULLE@cpnv.ch	Elève	Alexandre.DUBRULLE@cpnv.ch	223280	774784	26.08.2019 11:37	26.08.2019 11:37		788622126	26.08.2019	SI-CA1a
11643		Adrien-Jerome	DUCREST	DUCREST Adrien-Jerome	Cpnv::CurrentStudent	Adrien-Jerome.DUCREST@cpnv.ch	Elève	Adrien-Jerome.DUCREST@cpnv.ch	166182	574410	30.08.2019 16:15	30.08.2019 16:16		079 649 59 21	30.08.2019	YMMED-MI2a
11650		Guillaume	DUVOISIN	DUVOISIN Guillaume	Cpnv::CurrentStudent	Guillaume.DUVOISIN@cpnv.ch	Elève	Guillaume.DUVOISIN@cpnv.ch	142758					079.443.56.17	27.08.2018	SI-CA2a
11651		Kaarththigan	EAASWARALINGAM	EAASWARALINGAM Kaarththigan	Cpnv::CurrentStudent	Kaarththigan.EAASWARALINGAM@cpnv.ch	Elève	Kaarththigan.EAASWARALINGAM@cpnv.ch	216807	657192	29.08.2019 09:29	29.08.2019 09:29		076 824 10 94	29.08.2019	SI-MI2b
13124		Aida	EL-BIADI	EL-BIADI Aida	Cpnv::CurrentStudent	Aida.EL-BIADI@cpnv.ch	Elève	Aida.EL-BIADI@cpnv.ch	186101					079 843 71 70 	22.08.2019	YS-MI1a
8658		Theo	ESSEIVA	ESSEIVA Theo	Cpnv::CurrentStudent	Theo.ESSEIVA@cpnv.ch	Elève	Theo.ESSEIVA@cpnv.ch	203645					763361325	30.08.2019	SI-C4a
11666		Priscillia	ETIENNE	ETIENNE Priscillia	Cpnv::CurrentStudent	Priscillia.ETIENNE@cpnv.ch	Elève	Priscillia.ETIENNE@cpnv.ch	198536	499236	21.06.2019 10:17	21.06.2019 10:17		079 729 44 08 	21.06.2019	YCFCM-MI2a
8662		Bryan	EVANGELISTI	EVANGELISTI Bryan	Cpnv::CurrentStudent	Bryan.EVANGELISTI@cpnv.ch	Elève	Bryan.EVANGELISTI@cpnv.ch	204132						07.01.2019	SI-C3b
13141		Nolan	EVARD	EVARD Nolan	Cpnv::CurrentStudent	Nolan.EVARD@cpnv.ch	Elève	Nolan.EVARD@cpnv.ch	189993	538097	26.08.2019 11:15	26.08.2019 11:15		794642192	26.08.2019	SI-MI1b
11667		Marius	FABBRI	FABBRI Marius	Cpnv::CurrentStudent	Marius.FABBRI@cpnv.ch	Elève	Marius.FABBRI@cpnv.ch	215777	18973	20.09.2019 13:24	20.09.2019 13:25		079 644 94 75	20.09.2019	YAD-MI2a
10218		Andrea	FABBRI	FABBRI Andrea	Cpnv::CurrentStudent	Andrea.FABBRI@cpnv.ch	Elève	Andrea.FABBRI@cpnv.ch	132328	570695	05.09.2019 10:57	05.09.2019 10:57		079 430 86 96	05.09.2019	YCFCM-MI3a
10220		Naima	FAHMY-HANNA	FAHMY-HANNA Naima	Cpnv::CurrentStudent	Naima.FAHMY-HANNA@cpnv.ch	Elève	Naima.FAHMY-HANNA@cpnv.ch	156452	253421	27.08.2019 08:28	27.08.2019 08:29		763782811	27.08.2019	SI-C3a
6173		Jeremy	FAILLOUBAZ	FAILLOUBAZ Jeremy	Cpnv::CurrentStudent	Jeremy.FAILLOUBAZ@cpnv.ch	Elève	Jeremy.FAILLOUBAZ@cpnv.ch	152787	10671	26.08.2019 11:29	26.08.2019 11:29		079 197 21 09	26.08.2019	SI-CA1a
13145		Loic	FAILLOUBAZ	FAILLOUBAZ Loic	Cpnv::CurrentStudent	Loic.FAILLOUBAZ@cpnv.ch	Elève	Loic.FAILLOUBAZ@cpnv.ch	190015	948697	26.08.2019 11:29	26.08.2019 11:30		784002382	26.08.2019	SI-CA1a
13148		Yann	FANHA-DIAS	FANHA-DIAS Yann	Cpnv::CurrentStudent	Yann.FANHA-DIAS@cpnv.ch	Elève	Yann.FANHA-DIAS@cpnv.ch	189008	857440	26.08.2019 11:41	26.08.2019 11:42		799173884	26.08.2019	SI-C1a
11671		Bastien	FARDEL	FARDEL Bastien	Cpnv::CurrentStudent	Bastien.FARDEL@cpnv.ch	Elève	Bastien.FARDEL@cpnv.ch	216805	20765	20.05.2019 10:53	20.05.2019 10:54		079 892 43 10	20.05.2019	SI-MI2b
10226		Camille	FAVRE	FAVRE Camille	Cpnv::CurrentStudent	Camille.FAVRE@cpnv.ch	Elève	Camille.FAVRE@cpnv.ch	131036	92219	05.06.2019 16:04	05.06.2019 16:05		078 818 12 68	05.06.2019	YCFCM-MI3a
7313		Zacharie	FAVRE	FAVRE Zacharie	Cpnv::CurrentStudent	Zacharie.FAVRE@cpnv.ch	Elève	Zacharie.FAVRE@cpnv.ch	164989					789404153	30.08.2019	SI-C4a
10225		Jonathan	FAVRE	FAVRE Jonathan	Cpnv::CurrentStudent	Jonathan.FAVRE@cpnv.ch	Elève	Jonathan.FAVRE@cpnv.ch	211427					078 923 89 68	03.09.2019	SM-MI3a
10230		Arben	FERATI	FERATI Arben	Cpnv::CurrentStudent	Arben.FERATI@cpnv.ch	Elève	Arben.FERATI@cpnv.ch	156453	662488					27.08.2019	SI-C3a
11680		Luis-Pedro	FERNANDES-PINHEIRO	FERNANDES-PINHEIRO Luis-Pedro	Cpnv::CurrentStudent	Luis-Pedro.FERNANDES-PINHEIRO@cpnv.ch	Elève	Luis-Pedro.FERNANDES-PINHEIRO@cpnv.ch	216810	545168	26.08.2019 17:44	26.08.2019 17:45		078 675 51 76	26.08.2019	SI-MI2a
11682		Justin	FERRARA	FERRARA Justin	Cpnv::CurrentStudent	Justin.FERRARA@cpnv.ch	Elève	Justin.FERRARA@cpnv.ch	198679	530183	29.08.2019 13:16	29.08.2019 13:16		795571238	29.08.2019	YA-MI2a
13160		Tiago	FERREIRA-COUTO	FERREIRA-COUTO Tiago	Cpnv::CurrentStudent	Tiago.FERREIRA-COUTO@cpnv.ch	Elève	Tiago.FERREIRA-COUTO@cpnv.ch	189925	612898	30.09.2019 09:03	30.09.2019 09:04		797050507	30.09.2019	YA-MI1a
8684		Filipe	FERREIRA-DANTAS	FERREIRA-DANTAS Filipe	Cpnv::CurrentStudent	Filipe.FERREIRA-DANTAS@cpnv.ch	Elève	Filipe.FERREIRA-DANTAS@cpnv.ch	204501						02.03.2018	SI-C4b
10239		Ricardo-Joao	FERREIRA-DANTAS	FERREIRA-DANTAS Ricardo-Joao	Cpnv::CurrentStudent	Ricardo-Joao.FERREIRA-DANTAS@cpnv.ch	Elève	Ricardo-Joao.FERREIRA-DANTAS@cpnv.ch	212258						15.08.2017	SI-C3a
13164		Jose	FERREIRA-DE-CASTRO	FERREIRA-DE-CASTRO Jose	Cpnv::CurrentStudent	Jose.FERREIRA-DE-CASTRO@cpnv.ch	Elève	Jose.FERREIRA-DE-CASTRO@cpnv.ch	189882					076 650 65 72	29.08.2019	YE-MI1a
13165		Diogo-Gabriel	FERREIRA-MARUJO	FERREIRA-MARUJO Diogo-Gabriel	Cpnv::CurrentStudent	Diogo-Gabriel.FERREIRA-MARUJO@cpnv.ch	Elève	Diogo-Gabriel.FERREIRA-MARUJO@cpnv.ch	189005	411719	26.08.2019 12:01	26.08.2019 12:01		762513758	26.08.2019	SI-C1a
10242		Luca	FERRO	FERRO Luca	Cpnv::CurrentStudent	Luca.FERRO@cpnv.ch	Elève	Luca.FERRO@cpnv.ch	211430	607544	03.09.2019 16:57	03.09.2019 16:57		079 128 91 12	03.09.2019	SM-MI3a
11691		Mounir-Yann	FIAUX	FIAUX Mounir-Yann	Cpnv::CurrentStudent	Mounir-Yann.FIAUX@cpnv.ch	Elève	Mounir-Yann.FIAUX@cpnv.ch	215895	696233	26.08.2019 08:56	26.08.2019 08:57		077 266 70 40	26.08.2019	SI-C2a
13168		Jessica	FILONI	FILONI Jessica	Cpnv::CurrentStudent	Jessica.FILONI@cpnv.ch	Elève	Jessica.FILONI@cpnv.ch	187666					078 704 72 54	04.09.2019	PCFCM-MI1a
10251		Thomas	FLEURY	FLEURY Thomas	Cpnv::CurrentStudent	Thomas.FLEURY@cpnv.ch	Elève	Thomas.FLEURY@cpnv.ch	211462	363308	26.08.2019 08:27	26.08.2019 08:28		077 418 85 35	26.08.2019	YA-MI3a
13173		Benjamin	FONTANA	FONTANA Benjamin	Cpnv::CurrentStudent	Benjamin.FONTANA@cpnv.ch	Elève	Benjamin.FONTANA@cpnv.ch	189996	348667	26.08.2019 11:54	26.08.2019 11:54		786772003	26.08.2019	SI-MI1a
8699		Alexandre	FONTES	FONTES Alexandre	Cpnv::CurrentStudent	Alexandre.FONTES@cpnv.ch	Elève	Alexandre.FONTES@cpnv.ch	205543	362640	27.08.2019 08:30	27.08.2019 08:30		786929121	27.08.2019	SI-C3a
13177		Loris	FORTE	FORTE Loris	Cpnv::CurrentStudent	Loris.FORTE@cpnv.ch	Elève	Loris.FORTE@cpnv.ch	185774	449006	29.08.2019 13:31	29.08.2019 13:31		791298897	29.08.2019	YS-MI1a
13180		Victor	FRANCEY	FRANCEY Victor	Cpnv::CurrentStudent	Victor.FRANCEY@cpnv.ch	Elève	Victor.FRANCEY@cpnv.ch	190681	925577	29.08.2019 15:41	29.08.2019 15:42		794209966	26.09.2019	YAD-MI1a
11704		Martin	FRANCEY	FRANCEY Martin	Cpnv::CurrentStudent	Martin.FRANCEY@cpnv.ch	Elève	Martin.FRANCEY@cpnv.ch	167496	536679	23.09.2019 08:50	23.09.2019 08:51		079 783 11 00	23.09.2019	YAD-MI2a
13185		Coralie	FREYMOND	FREYMOND Coralie	Cpnv::CurrentStudent	Coralie.FREYMOND@cpnv.ch	Elève	Coralie.FREYMOND@cpnv.ch	188211					079 822 81 14	04.09.2019	PCFCM-MI1a
11710		Kevin	GACON	GACON Kevin	Cpnv::CurrentStudent	Kevin.GACON@cpnv.ch	Elève	Kevin.GACON@cpnv.ch	216851	804514	29.08.2019 09:24	29.08.2019 09:25		079 904 48 61	29.08.2019	SI-C2b
13198		Daniel	GAMPER	GAMPER Daniel	Cpnv::CurrentStudent	Daniel.GAMPER@cpnv.ch	Elève	Daniel.GAMPER@cpnv.ch	223902	641102	26.08.2019 11:29	26.08.2019 11:30		793153782	26.08.2019	SI-CA1a
8718		Sylvain	GANDINI	GANDINI Sylvain	Cpnv::CurrentStudent	Sylvain.GANDINI@cpnv.ch	Elève	Sylvain.GANDINI@cpnv.ch	203651	758424	09.09.2019 16:18	09.09.2019 16:19		787110556	09.09.2019	SI-C4b
11716		Johann	GARIN	GARIN Johann	Cpnv::CurrentStudent	Johann.GARIN@cpnv.ch	Elève	Johann.GARIN@cpnv.ch	199288	277489	09.09.2019 08:46	09.09.2019 08:47		078 964 28 69	09.09.2019	YAD-MI2a
13211		Luca	GATTO	GATTO Luca	Cpnv::CurrentStudent	Luca.GATTO@cpnv.ch	Elève	Luca.GATTO@cpnv.ch	189003	427962	26.08.2019 11:12	26.08.2019 11:12		078 972 27 84	26.08.2019	SI-C1b
10277		Theo	GAUTIER	GAUTIER Theo	Cpnv::CurrentStudent	Theo.GAUTIER@cpnv.ch	Elève	Theo.GAUTIER@cpnv.ch	156448	959712	28.08.2019 19:38	28.08.2019 19:39		765211178	28.08.2019	SI-C3a
10279		Loic	GAVIN	GAVIN Loic	Cpnv::CurrentStudent	Loic.GAVIN@cpnv.ch	Elève	Loic.GAVIN@cpnv.ch	156446						15.08.2017	SI-C3a
11731		Jonas-Valentin	GERBER	GERBER Jonas-Valentin	Cpnv::CurrentStudent	Jonas-Valentin.GERBER@cpnv.ch	Elève	Jonas-Valentin.GERBER@cpnv.ch	166179	341471	30.08.2019 16:16	30.08.2019 16:16		079 360 27 00	30.08.2019	YMMED-MI2a
13218		Mael	GERBER	GERBER Mael	Cpnv::CurrentStudent	Mael.GERBER@cpnv.ch	Elève	Mael.GERBER@cpnv.ch	189613	553617	29.08.2019 15:43	29.08.2019 15:44		796801761	26.09.2019	YAD-MI1a
13219		Sebastian	GERBEX	GERBEX Sebastian	Cpnv::CurrentStudent	Sebastian.GERBEX@cpnv.ch	Elève	Sebastian.GERBEX@cpnv.ch	188888	875813	29.08.2019 09:01	29.08.2019 09:02		765154734	09.09.2019	SM-MI1c
13221		Jade	GETAZ	GETAZ Jade	Cpnv::CurrentStudent	Jade.GETAZ@cpnv.ch	Elève	Jade.GETAZ@cpnv.ch	114083					079 521 48 96	04.09.2019	PCFCM-MI1a
10289		Luca	GIANNANTONIO	GIANNANTONIO Luca	Cpnv::CurrentStudent	Luca.GIANNANTONIO@cpnv.ch	Elève	Luca.GIANNANTONIO@cpnv.ch	156591	691197	27.08.2019 10:43	27.08.2019 10:47		079 369 22 06	27.08.2019	SI-C3b
13225		Nolan	GIGANDET	GIGANDET Nolan	Cpnv::CurrentStudent	Nolan.GIGANDET@cpnv.ch	Elève	Nolan.GIGANDET@cpnv.ch	189979	699588	30.09.2019 10:46	30.09.2019 10:46		788719197	30.09.2019	YA-MI1a
13230		Simon	GINDROZ	GINDROZ Simon	Cpnv::CurrentStudent	Simon.GINDROZ@cpnv.ch	Elève	Simon.GINDROZ@cpnv.ch	189603	343207	26.09.2019 11:53	26.09.2019 11:53		754139605	26.09.2019	YAD-MI1a
10292		Esteban	GIORGIS	GIORGIS Esteban	Cpnv::CurrentStudent	Esteban.GIORGIS@cpnv.ch	Elève	Esteban.GIORGIS@cpnv.ch	211336	310138	29.08.2019 09:25	29.08.2019 09:26		079 501 19 20	29.08.2019	SI-C2b
10294		Amandine	GIVEL	GIVEL Amandine	Cpnv::CurrentStudent	Amandine.GIVEL@cpnv.ch	Elève	Amandine.GIVEL@cpnv.ch	130901	400252	30.08.2019 16:55	30.08.2019 16:56		079 883 39 00	30.08.2019	PCFCM-MI3a
10297		Oceane	GLOOR	GLOOR Oceane	Cpnv::CurrentStudent	Oceane.GLOOR@cpnv.ch	Elève	Oceane.GLOOR@cpnv.ch	152266	938767	27.08.2019 10:43	27.08.2019 10:43		079 861 53 99	27.08.2019	YS-MI3a
8748		Simon	GOBET	GOBET Simon	Cpnv::CurrentStudent	Simon.GOBET@cpnv.ch	Elève	Simon.GOBET@cpnv.ch	125332	985240	29.08.2019 16:09	29.08.2019 16:09		079 357 79 61	29.08.2019	YMMED-MI4a
13241		Michael	GOGNIAT	GOGNIAT Michael	Cpnv::CurrentStudent	Michael.GOGNIAT@cpnv.ch	Elève	Michael.GOGNIAT@cpnv.ch	223281	27275	26.08.2019 11:34	26.08.2019 11:34		798561778	26.08.2019	SI-CA1a
8750		Maxim	GOLAY	GOLAY Maxim	Cpnv::CurrentStudent	Maxim.GOLAY@cpnv.ch	Elève	Maxim.GOLAY@cpnv.ch	203559					786973031	30.08.2019	SI-MI4a
8752		Cyril	GOLDENSCHUE	GOLDENSCHUE Cyril	Cpnv::CurrentStudent	Cyril.GOLDENSCHUE@cpnv.ch	Elève	Cyril.GOLDENSCHUE@cpnv.ch	203706						02.03.2018	SI-C4b
13244		Elsa	GOMEZ	GOMEZ Elsa	Cpnv::CurrentStudent	Elsa.GOMEZ@cpnv.ch	Elève	Elsa.GOMEZ@cpnv.ch	191641	226224	03.09.2019 15:10	03.09.2019 15:11		079 853 04 58	03.09.2019	YCFCM-MI1a
8757		Lisa	GORGERAT	GORGERAT Lisa	Cpnv::CurrentStudent	Lisa.GORGERAT@cpnv.ch	Elève	Lisa.GORGERAT@cpnv.ch	204507	209172	03.09.2019 16:47	03.09.2019 16:47		079 295 42 05	03.09.2019	SM-MI3a
13253		Lenny	GORIS	GORIS Lenny	Cpnv::CurrentStudent	Lenny.GORIS@cpnv.ch	Elève	Lenny.GORIS@cpnv.ch	223900	534281	26.08.2019 11:44	26.08.2019 11:45		788260647	26.08.2019	SI-C1a
14009		Yann	GOTTRAUX	GOTTRAUX Yann	Cpnv::CurrentStudent	Yann.GOTTRAUX@cpnv.ch	Elève	Yann.GOTTRAUX@cpnv.ch	189922	785193	30.09.2019 08:25	30.09.2019 08:25		787261147	30.09.2019	YA-MI1a
13256		Melvin	GRAF	GRAF Melvin	Cpnv::CurrentStudent	Melvin.GRAF@cpnv.ch	Elève	Melvin.GRAF@cpnv.ch	187509					079 476 90 86	04.09.2019	PCFCM-MI1a
13255		Leonie	GRAF	GRAF Leonie	Cpnv::CurrentStudent	Leonie.GRAF@cpnv.ch	Elève	Leonie.GRAF@cpnv.ch	189912	339267	30.09.2019 11:36	30.09.2019 11:36		795479730	30.09.2019	YA-MI1a
12630		Andreas	GRANADA	GRANADA Andreas	Cpnv::CurrentStudent	Andreas.GRANADA@cpnv.ch	Elève	Andreas.GRANADA@cpnv.ch	219330	953424	26.08.2019 10:54	26.08.2019 10:55		764241400	26.08.2019	SI-C1b
10328		Sarah	GRIS	GRIS Sarah	Cpnv::CurrentStudent	Sarah.GRIS@cpnv.ch	Elève	Sarah.GRIS@cpnv.ch	106134	295249	05.09.2019 10:58	05.09.2019 10:58		078 948 92 10	05.09.2019	YCFCM-MI3a
12631		Thomas	GROSSMANN	GROSSMANN Thomas	Cpnv::CurrentStudent	Thomas.GROSSMANN@cpnv.ch	Elève	Thomas.GROSSMANN@cpnv.ch	219326	35885	26.08.2019 08:56	26.08.2019 08:57		079 135 00 07	26.08.2019	SI-MI2a
14079		Mathias	GROUX	GROUX Mathias	Cpnv::CurrentStudent	Mathias.GROUX@cpnv.ch	Elève	Mathias.GROUX@cpnv.ch	153935						28.08.2019	SI-C4r
11774		Adam	GRUBER	GRUBER Adam	Cpnv::CurrentStudent	Adam.GRUBER@cpnv.ch	Elève	Adam.GRUBER@cpnv.ch	216789	503292	29.08.2019 09:30	29.08.2019 09:31		078 683 15 95	29.08.2019	SI-MI2b
12519		Rosalie	GUDIT	GUDIT Rosalie	Cpnv::CurrentStudent	Rosalie.GUDIT@cpnv.ch	Elève	Rosalie.GUDIT@cpnv.ch	193481					077 426 46 56	13.09.2018	YCFCM-MI2a
8770		Theo	GUEISSAZ	GUEISSAZ Theo	Cpnv::CurrentStudent	Theo.GUEISSAZ@cpnv.ch	Elève	Theo.GUEISSAZ@cpnv.ch	202950	378525	26.08.2019 15:43	26.08.2019 15:44		078 934 57 51	26.08.2019	YA-MI4a
11781		Mathias	GUIGNARD	GUIGNARD Mathias	Cpnv::CurrentStudent	Mathias.GUIGNARD@cpnv.ch	Elève	Mathias.GUIGNARD@cpnv.ch	217230	390978	27.08.2019 19:28	27.08.2019 19:29		077 470 71 38	27.08.2019	SI-C1a
10345		Jeremie	GUILLET	GUILLET Jeremie	Cpnv::CurrentStudent	Jeremie.GUILLET@cpnv.ch	Elève	Jeremie.GUILLET@cpnv.ch	131068	6879	30.08.2019 17:20	30.08.2019 17:20		079 861 01 71	30.08.2019	PCFCM-MI3a
13270		Shanshe	GUNDISHVILI	GUNDISHVILI Shanshe	Cpnv::CurrentStudent	Shanshe.GUNDISHVILI@cpnv.ch	Elève	Shanshe.GUNDISHVILI@cpnv.ch	189000	274257	26.08.2019 11:10	26.08.2019 11:10		779638325	26.08.2019	SI-C1b
10348		Maxime	GUTKNECHT	GUTKNECHT Maxime	Cpnv::CurrentStudent	Maxime.GUTKNECHT@cpnv.ch	Elève	Maxime.GUTKNECHT@cpnv.ch	132288					076 324 38 18	03.06.2019	YAD-MI3a
10349		Diego	HALDI	HALDI Diego	Cpnv::CurrentStudent	Diego.HALDI@cpnv.ch	Elève	Diego.HALDI@cpnv.ch	211033						15.08.2017	SI-MI3a
8782		Marielle	HANGGELI	HANGGELI Marielle	Cpnv::CurrentStudent	Marielle.HANGGELI@cpnv.ch	Elève	Marielle.HANGGELI@cpnv.ch	204007	68415	02.09.2019 08:04	02.09.2019 08:04		797234676	02.09.2019	SM-MI4a
8785		Jules-Felix-Aladin	HASSIG	HASSIG Jules-Felix-Aladin	Cpnv::CurrentStudent	Jules-Felix-Aladin.HASSIG@cpnv.ch	Elève	Jules-Felix-Aladin.HASSIG@cpnv.ch	125140					078 878 86 20	29.10.2018	YAD-MI4a
7407		William	HAUSMANN	HAUSMANN William	Cpnv::CurrentStudent	William.HAUSMANN@cpnv.ch	Elève	William.HAUSMANN@cpnv.ch	166758					789368096	30.08.2019	SI-C4a
8788		Jonas	HAUTIER	HAUTIER Jonas	Cpnv::CurrentStudent	Jonas.HAUTIER@cpnv.ch	Elève	Jonas.HAUTIER@cpnv.ch	203648	316922				799224468	04.09.2019	SI-C3b
13287		Yann	HELDNER	HELDNER Yann	Cpnv::CurrentStudent	Yann.HELDNER@cpnv.ch	Elève	Yann.HELDNER@cpnv.ch	221709	793315	29.08.2019 15:45	29.08.2019 15:46		774027412	26.09.2019	YAD-MI1a
13288		Lothar	HEMPEL	HEMPEL Lothar	Cpnv::CurrentStudent	Lothar.HEMPEL@cpnv.ch	Elève	Lothar.HEMPEL@cpnv.ch	188885	998814	26.08.2019 14:15	26.08.2019 14:15		795195125	26.08.2019	SM-MI1a
10360		Audrey	HENRY	HENRY Audrey	Cpnv::CurrentStudent	Audrey.HENRY@cpnv.ch	Elève	Audrey.HENRY@cpnv.ch	129264	114753	05.09.2019 10:58	05.09.2019 10:58		078 675 93 59	05.09.2019	YCFCM-MI3a
10362		Charlotte	HENZI	HENZI Charlotte	Cpnv::CurrentStudent	Charlotte.HENZI@cpnv.ch	Elève	Charlotte.HENZI@cpnv.ch	133387	41243	03.07.2019 15:43	03.07.2019 15:46		079 728 04 25	03.07.2019	YCFCM-MI3a
13294		Brian	HESS	HESS Brian	Cpnv::CurrentStudent	Brian.HESS@cpnv.ch	Elève	Brian.HESS@cpnv.ch	191159	388185	29.08.2019 15:47	29.08.2019 15:47		786664950	26.09.2019	YAD-MI1a
8802		Michael	HOFER	HOFER Michael	Cpnv::CurrentStudent	Michael.HOFER@cpnv.ch	Elève	Michael.HOFER@cpnv.ch	203654	443245	27.08.2019 08:28	27.08.2019 08:29		079 898 32 62	27.08.2019	SI-C3a
8803		Loann	HOFFER	HOFFER Loann	Cpnv::CurrentStudent	Loann.HOFFER@cpnv.ch	Elève	Loann.HOFFER@cpnv.ch	109559	1652	15.08.2019 15:26	15.08.2019 15:26		077 496 73 99	16.08.2019	YA-MI4a
10369		Arben	HOXHA	HOXHA Arben	Cpnv::CurrentStudent	Arben.HOXHA@cpnv.ch	Elève	Arben.HOXHA@cpnv.ch	96110					078 635 13 45	05.09.2019	YS-MI1a
8812		Thomas	HUGUET	HUGUET Thomas	Cpnv::CurrentStudent	Thomas.HUGUET@cpnv.ch	Elève	Thomas.HUGUET@cpnv.ch	205018	972021	02.09.2019 17:18	02.09.2019 17:19		799224367	02.09.2019	SI-C3b
11812		Elisa	HURNI	HURNI Elisa	Cpnv::CurrentStudent	Elisa.HURNI@cpnv.ch	Elève	Elisa.HURNI@cpnv.ch	199398					075 422 19 63	13.09.2018	YCFCM-MI2a
11813		Sedin	HUSIC	HUSIC Sedin	Cpnv::CurrentStudent	Sedin.HUSIC@cpnv.ch	Elève	Sedin.HUSIC@cpnv.ch	167192	275694	21.05.2019 10:14			078 696 38 19	21.05.2019	YCFCM-MI2a
13309		Lea	ISCHI	ISCHI Lea	Cpnv::CurrentStudent	Lea.ISCHI@cpnv.ch	Elève	Lea.ISCHI@cpnv.ch	188882	903525	03.09.2019 10:33	03.09.2019 10:35		774984022	09.09.2019	SM-MI1c
13319		Mathieu-Raphael	JAGGI	JAGGI Mathieu-Raphael	Cpnv::CurrentStudent	Mathieu-Raphael.JAGGI@cpnv.ch	Elève	Mathieu-Raphael.JAGGI@cpnv.ch	184920	287852	05.09.2019 10:48	05.09.2019 10:48		079 651 61 44	05.09.2019	YBMEN-MI1b
8834		Szymon	JAGLA	JAGLA Szymon	Cpnv::CurrentStudent	Szymon.JAGLA@cpnv.ch	Elève	Szymon.JAGLA@cpnv.ch	203562	934367	27.08.2019 08:31	27.08.2019 08:32		787400491	27.08.2019	SI-C3a
5823		Eqbal	JALALY	JALALY Eqbal	Cpnv::CurrentStudent	Eqbal.JALALY@cpnv.ch	Elève	Eqbal.JALALY@cpnv.ch	156063					076 441 41 62	02.03.2018	SI-C4b
10390		Jerome	JAQUEMET	JAQUEMET Jerome	Cpnv::CurrentStudent	Jerome.JAQUEMET@cpnv.ch	Elève	Jerome.JAQUEMET@cpnv.ch	156436	930952	26.08.2019 18:03	26.08.2019 18:04		078 805 00 27	26.08.2019	SI-C3b
13323		Benoit	JAQUES	JAQUES Benoit	Cpnv::CurrentStudent	Benoit.JAQUES@cpnv.ch	Elève	Benoit.JAQUES@cpnv.ch	188879	838505	26.08.2019 14:11	26.08.2019 14:11		792878376	26.08.2019	SM-MI1a
8846		Valentin	JAQUIER	JAQUIER Valentin	Cpnv::CurrentStudent	Valentin.JAQUIER@cpnv.ch	Elève	Valentin.JAQUIER@cpnv.ch	117985	297884	29.08.2019 16:09	29.08.2019 16:10		079 813 72 79	29.08.2019	YMMED-MI4a
13329		Eliott	JAQUIER	JAQUIER Eliott	Cpnv::CurrentStudent	Eliott.JAQUIER@cpnv.ch	Elève	Eliott.JAQUIER@cpnv.ch	190005	222847	26.08.2019 11:06	26.08.2019 11:07		078 921 43 38	26.08.2019	SI-C1b
13327		Cyprien	JAQUIER	JAQUIER Cyprien	Cpnv::CurrentStudent	Cyprien.JAQUIER@cpnv.ch	Elève	Cyprien.JAQUIER@cpnv.ch	189153	444032	26.08.2019 11:49	26.08.2019 11:50		794722750	26.08.2019	SI-MI1a
11832		Gatien	JAYME	JAYME Gatien	Cpnv::CurrentStudent	Gatien.JAYME@cpnv.ch	Elève	Gatien.JAYME@cpnv.ch	216792	140031	26.08.2019 15:04	26.08.2019 15:05		079 383 51 44	26.08.2019	SI-C2a
13350		Meline	JUILLET	JUILLET Meline	Cpnv::CurrentStudent	Meline.JUILLET@cpnv.ch	Elève	Meline.JUILLET@cpnv.ch	224220	285147	26.08.2019 11:12	26.08.2019 11:13		793209938	26.08.2019	SI-C1b
8862		Jeremy	JUNGO	JUNGO Jeremy	Cpnv::CurrentStudent	Jeremy.JUNGO@cpnv.ch	Elève	Jeremy.JUNGO@cpnv.ch	203657						02.03.2018	SI-C4b
13353		Tiffany	JURIENS	JURIENS Tiffany	Cpnv::CurrentStudent	Tiffany.JURIENS@cpnv.ch	Elève	Tiffany.JURIENS@cpnv.ch	184014	641856	29.08.2019 13:33	29.08.2019 13:33		798868456	29.08.2019	YS-MI1a
10409		Dylan	JUTZELER	JUTZELER Dylan	Cpnv::CurrentStudent	Dylan.JUTZELER@cpnv.ch	Elève	Dylan.JUTZELER@cpnv.ch	211437					076 822 38 42	03.09.2019	SM-MI3a
11849		Robin	KAHUMBU	KAHUMBU Robin	Cpnv::CurrentStudent	Robin.KAHUMBU@cpnv.ch	Elève	Robin.KAHUMBU@cpnv.ch	96522	171115	10.09.2019 09:57	10.09.2019 09:57		763202595	10.09.2019	YS-MI2a
13362		Ruben	KATUKU	KATUKU Ruben	Cpnv::CurrentStudent	Ruben.KATUKU@cpnv.ch	Elève	Ruben.KATUKU@cpnv.ch	188876	58879	26.08.2019 14:06	26.08.2019 14:07		799314548	26.08.2019	SM-MI1b
13363		Elisha	KAYUMBA	KAYUMBA Elisha	Cpnv::CurrentStudent	Elisha.KAYUMBA@cpnv.ch	Elève	Elisha.KAYUMBA@cpnv.ch	193765	586358	26.08.2019 14:16	26.08.2019 14:16		763104197	26.08.2019	SM-MI1a
11863		Christnovie	KIALA-BINGA	KIALA-BINGA Christnovie	Cpnv::CurrentStudent	Christnovie.KIALA-BINGA@cpnv.ch	Elève	Christnovie.KIALA-BINGA@cpnv.ch	216912	735203	29.08.2019 09:26	29.08.2019 09:26		077 937 13 70	29.08.2019	SI-C2b
11865		Luana	KIRCHNER-BANNWART	KIRCHNER-BANNWART Luana	Cpnv::CurrentStudent	Luana.KIRCHNER-BANNWART@cpnv.ch	Elève	Luana.KIRCHNER-BANNWART@cpnv.ch	217333					078 216 46 46	27.08.2018	SI-CA2a
11870		Herve	KOTTELAT	KOTTELAT Herve	Cpnv::CurrentStudent	Herve.KOTTELAT@cpnv.ch	Elève	Herve.KOTTELAT@cpnv.ch	216534	55458	02.06.2019 00:39	02.06.2019 00:40		793355262	02.06.2019	SM-MI2a
10430		Rose	KRATTINGER	KRATTINGER Rose	Cpnv::CurrentStudent	Rose.KRATTINGER@cpnv.ch	Elève	Rose.KRATTINGER@cpnv.ch	137860	32875	09.09.2019 14:09	09.09.2019 14:09		079 957 30 22	09.09.2019	YS-MI3a
11880		Nivetha	KUGATHASAN	KUGATHASAN Nivetha	Cpnv::CurrentStudent	Nivetha.KUGATHASAN@cpnv.ch	Elève	Nivetha.KUGATHASAN@cpnv.ch	199005	820315	30.08.2019 11:59	30.08.2019 11:59		076 403 37 01	30.08.2019	PCFCM-MI2a
7461		Kalhane	KWIATKOWSKI	KWIATKOWSKI Kalhane	Cpnv::CurrentStudent	Kalhane.KWIATKOWSKI@cpnv.ch	Elève	Kalhane.KWIATKOWSKI@cpnv.ch	164306					076 317 16 06	29.10.2018	YA-MI4a
8890		Samuel	LAPOINTE	LAPOINTE Samuel	Cpnv::CurrentStudent	Samuel.LAPOINTE@cpnv.ch	Elève	Samuel.LAPOINTE@cpnv.ch	123675	472469	29.08.2019 16:10	29.08.2019 16:10		079 355 28 70	29.08.2019	YMMED-MI4a
13403		Mahe	LAVAUD	LAVAUD Mahe	Cpnv::CurrentStudent	Mahe.LAVAUD@cpnv.ch	Elève	Mahe.LAVAUD@cpnv.ch	223138	66687	26.08.2019 11:51	26.08.2019 11:51		33767852655	26.08.2019	SI-C1a
10440		Luca	LAZZARA	LAZZARA Luca	Cpnv::CurrentStudent	Luca.LAZZARA@cpnv.ch	Elève	Luca.LAZZARA@cpnv.ch	155359	882460	02.09.2019 14:16	02.09.2019 14:16		079 870 95 10	02.09.2019	YS-MI3a
13406		Sylvain	LECHAIRE	LECHAIRE Sylvain	Cpnv::CurrentStudent	Sylvain.LECHAIRE@cpnv.ch	Elève	Sylvain.LECHAIRE@cpnv.ch	188997	188293	26.08.2019 11:14	26.08.2019 11:14		795549345	26.08.2019	SI-C1b
13408		Noe	LEDERREY	LEDERREY Noe	Cpnv::CurrentStudent	Noe.LEDERREY@cpnv.ch	Elève	Noe.LEDERREY@cpnv.ch	188875					762201876	26.08.2019	SM-MI1b
10448		Rafael	LEITE-SEPULVEDA	LEITE-SEPULVEDA Rafael	Cpnv::CurrentStudent	Rafael.LEITE-SEPULVEDA@cpnv.ch	Elève	Rafael.LEITE-SEPULVEDA@cpnv.ch	211203	272888	29.08.2019 09:33	29.08.2019 09:34		079 192 08 31	29.08.2019	YA-MI3a
10459		Marco	LOCATELLI	LOCATELLI Marco	Cpnv::CurrentStudent	Marco.LOCATELLI@cpnv.ch	Elève	Marco.LOCATELLI@cpnv.ch	130982	504729	05.09.2019 10:59	05.09.2019 10:59		078 719 77 69	05.09.2019	YCFCM-MI3a
12522		Laetitia	LOEWER	LOEWER Laetitia	Cpnv::CurrentStudent	Laetitia.LOEWER@cpnv.ch	Elève	Laetitia.LOEWER@cpnv.ch	125033	712256	12.06.2019 15:15	12.06.2019 15:15		079 195 14 28	12.06.2019	PCFCM-MI2a
13422		Matteo	LONGCHAMP	LONGCHAMP Matteo	Cpnv::CurrentStudent	Matteo.LONGCHAMP@cpnv.ch	Elève	Matteo.LONGCHAMP@cpnv.ch	223913					079 273 47 07	29.08.2019	YE-MI1a
14055		Valentino	LOSITO	LOSITO Valentino	Cpnv::CurrentStudent	Valentino.LOSITO@cpnv.ch	Elève	Valentino.LOSITO@cpnv.ch	224731						26.08.2019	SI-MI1a
14122		Shayna-Michelle	LOUREIRO-ANDRADE	LOUREIRO-ANDRADE Shayna-Michelle	Cpnv::CurrentStudent	Shayna-Michelle.LOUREIRO-ANDRADE@cpnv.ch	Elève	Shayna-Michelle.LOUREIRO-ANDRADE@cpnv.ch	182827	930170	05.09.2019 13:26	05.09.2019 13:26		786047722	05.09.2019	YS-MI1a
14176		Marina	MACHADO-CAPISTRANO-SILVA	MACHADO-CAPISTRANO-SILVA Marina	Cpnv::CurrentStudent	Marina.MACHADO-CAPISTRANO-SILVA@cpnv.ch	Elève	Marina.MACHADO-CAPISTRANO-SILVA@cpnv.ch		899503	02.10.2019 08:43	02.10.2019 08:43		078 810 1087	02.10.2019	SI-C1b
13450		Gabriel	MACHADO-PEREIRA	MACHADO-PEREIRA Gabriel	Cpnv::CurrentStudent	Gabriel.MACHADO-PEREIRA@cpnv.ch	Elève	Gabriel.MACHADO-PEREIRA@cpnv.ch	188994	486499	10.09.2019 22:01	10.09.2019 22:02		764619335	10.09.2019	SI-C1a
10479		Bruno-Gabriel	MAGALHAES-MATOS	MAGALHAES-MATOS Bruno-Gabriel	Cpnv::CurrentStudent	Bruno-Gabriel.MAGALHAES-MATOS@cpnv.ch	Elève	Bruno-Gabriel.MAGALHAES-MATOS@cpnv.ch	138155	968807	05.09.2019 11:00	05.09.2019 11:00		078 976 19 01	05.09.2019	YCFCM-MI3a
13451		Lola	MAGET	MAGET Lola	Cpnv::CurrentStudent	Lola.MAGET@cpnv.ch	Elève	Lola.MAGET@cpnv.ch	184580	575676	29.08.2019 13:34	29.08.2019 13:34		079 692 82 63	29.08.2019	YS-MI1a
10480		Oceane	MAGISTRIS	MAGISTRIS Oceane	Cpnv::CurrentStudent	Oceane.MAGISTRIS@cpnv.ch	Elève	Oceane.MAGISTRIS@cpnv.ch	129934	804254	05.09.2019 11:00	05.09.2019 11:01		078 864 66 50	05.09.2019	YCFCM-MI3a
11944		Maurine	MAILLARD	MAILLARD Maurine	Cpnv::CurrentStudent	Maurine.MAILLARD@cpnv.ch	Elève	Maurine.MAILLARD@cpnv.ch	198969	441322	30.08.2019 16:16	30.08.2019 16:16		076 615 07 80	30.08.2019	YMMED-MI2a
11076		Theo	MAIURANO	MAIURANO Theo	Cpnv::CurrentStudent	Theo.MAIURANO@cpnv.ch	Elève	Theo.MAIURANO@cpnv.ch	156980					079 870 76 22	29.10.2018	YAD-MI3a
13459		Ajla	MALAGIC	MALAGIC Ajla	Cpnv::CurrentStudent	Ajla.MALAGIC@cpnv.ch	Elève	Ajla.MALAGIC@cpnv.ch	190891	19741	03.09.2019 15:13	03.09.2019 15:13		078 871 43 45	03.09.2019	YCFCM-MI1a
13460		Theo	MANGILI	MANGILI Theo	Cpnv::CurrentStudent	Theo.MANGILI@cpnv.ch	Elève	Theo.MANGILI@cpnv.ch	112078	694625	29.08.2019 13:34	29.08.2019 13:35		787082238	29.08.2019	YS-MI1a
11955		Theo	MANZINALI	MANZINALI Theo	Cpnv::CurrentStudent	Theo.MANZINALI@cpnv.ch	Elève	Theo.MANZINALI@cpnv.ch	202661	514129	29.08.2019 11:35	29.08.2019 11:36		787074771	29.08.2019	YA-MI2a
8938		Kylian	MANZINI	MANZINI Kylian	Cpnv::CurrentStudent	Kylian.MANZINI@cpnv.ch	Elève	Kylian.MANZINI@cpnv.ch	204506	203281	27.08.2019 10:33			789207230	27.08.2019	SM-MI4b
11957		Nathan	MARADAN	MARADAN Nathan	Cpnv::CurrentStudent	Nathan.MARADAN@cpnv.ch	Elève	Nathan.MARADAN@cpnv.ch	193840	576822	03.09.2019 10:39	03.09.2019 10:40		793172009	03.09.2019	YS-MI2a
11958		Eros	MARAIA	MARAIA Eros	Cpnv::CurrentStudent	Eros.MARAIA@cpnv.ch	Elève	Eros.MARAIA@cpnv.ch	199425	291369	30.08.2019 16:17	30.08.2019 16:19		078 603 20 60	30.08.2019	YMMED-MI2a
10499		Nicolas	MARCINKOWSKI	MARCINKOWSKI Nicolas	Cpnv::CurrentStudent	Nicolas.MARCINKOWSKI@cpnv.ch	Elève	Nicolas.MARCINKOWSKI@cpnv.ch	145530	187190	05.09.2019 11:01	05.09.2019 11:01		078 745 20 53	05.09.2019	YCFCM-MI3a
13471		Maxence	MARIN	MARIN Maxence	Cpnv::CurrentStudent	Maxence.MARIN@cpnv.ch	Elève	Maxence.MARIN@cpnv.ch	223114	773232	26.08.2019 11:03	26.08.2019 11:03		765646353	26.08.2019	SI-C1b
13485		Tess	MARTIN	MARTIN Tess	Cpnv::CurrentStudent	Tess.MARTIN@cpnv.ch	Elève	Tess.MARTIN@cpnv.ch	187527	818352	29.08.2019 13:36	29.08.2019 13:36		799100823	29.08.2019	YS-MI1a
10518		Pierrick	MARTIN	MARTIN Pierrick	Cpnv::CurrentStudent	Pierrick.MARTIN@cpnv.ch	Elève	Pierrick.MARTIN@cpnv.ch	129481					079 401 63 78	16.11.2018	YMMED-MI3a
13995		Anysia	MARTIN	MARTIN Anysia	Cpnv::CurrentStudent	Anysia.MARTIN@cpnv.ch	Elève	Anysia.MARTIN@cpnv.ch	183476	169351	29.08.2019 13:35	29.08.2019 13:36		799100822	29.08.2019	YS-MI1a
10520		Kevin	MARTIN	MARTIN Kevin	Cpnv::CurrentStudent	Kevin.MARTIN@cpnv.ch	Elève	Kevin.MARTIN@cpnv.ch	114050	753970	02.09.2019 14:12	02.09.2019 14:13		076 615 10 76	02.09.2019	YS-MI3a
13478		Ludovic	MARTIN	MARTIN Ludovic	Cpnv::CurrentStudent	Ludovic.MARTIN@cpnv.ch	Elève	Ludovic.MARTIN@cpnv.ch	191671	430465	03.09.2019 15:10	03.09.2019 15:10		076 585 13 54	03.09.2019	YCFCM-MI1a
8955		Fabien	MASSON	MASSON Fabien	Cpnv::CurrentStudent	Fabien.MASSON@cpnv.ch	Elève	Fabien.MASSON@cpnv.ch	205745	675610	20.05.2019 10:58	20.05.2019 10:59		078 402 89 97	20.05.2019	SI-C2a
11244		Tony	MAUNY	MAUNY Tony	Cpnv::CurrentStudent	Tony.MAUNY@cpnv.ch	Elève	Tony.MAUNY@cpnv.ch	163458	543598	27.08.2019 20:16	27.08.2019 20:17		078 948 93 88	27.08.2019	YS-MI3a
11989		Guilain	MBAYO	MBAYO Guilain	Cpnv::CurrentStudent	Guilain.MBAYO@cpnv.ch	Elève	Guilain.MBAYO@cpnv.ch	218114					079 896 17 45	27.08.2018	SI-CA2a
11994		Dmitri	MEILI	MEILI Dmitri	Cpnv::CurrentStudent	Dmitri.MEILI@cpnv.ch	Elève	Dmitri.MEILI@cpnv.ch	156097	221947	26.08.2019 09:39	26.08.2019 09:39		078 851 50 08	26.08.2019	SI-MI2a
12008		Sarah	MEUWLY	MEUWLY Sarah	Cpnv::CurrentStudent	Sarah.MEUWLY@cpnv.ch	Elève	Sarah.MEUWLY@cpnv.ch	193732	770732	10.08.2019 15:51	10.08.2019 15:52		794679350	10.08.2019	YS-MI2a
8976		Samuel-Souka	MEYER	MEYER Samuel-Souka	Cpnv::CurrentStudent	Samuel-Souka.MEYER@cpnv.ch	Elève	Samuel-Souka.MEYER@cpnv.ch	205748	510248	27.08.2019 18:01	27.08.2019 18:02		795963311	27.08.2019	SI-C3b
13522		Loik	MEYLAN	MEYLAN Loik	Cpnv::CurrentStudent	Loik.MEYLAN@cpnv.ch	Elève	Loik.MEYLAN@cpnv.ch	188991	748077	26.08.2019 11:49	26.08.2019 11:50		795238538	26.08.2019	SI-C1a
7530		Benoit	MEYLAN	MEYLAN Benoit	Cpnv::CurrentStudent	Benoit.MEYLAN@cpnv.ch	Elève	Benoit.MEYLAN@cpnv.ch	166741						02.03.2018	SI-C4b
13523		Thomas	MEYSTRE	MEYSTRE Thomas	Cpnv::CurrentStudent	Thomas.MEYSTRE@cpnv.ch	Elève	Thomas.MEYSTRE@cpnv.ch	128942	794227	03.09.2019 15:13	03.09.2019 15:13		078 796 52 93	03.09.2019	YCFCM-MI1a
8982		Mael	MICHOD	MICHOD Mael	Cpnv::CurrentStudent	Mael.MICHOD@cpnv.ch	Elève	Mael.MICHOD@cpnv.ch	203085	753570	01.09.2019 15:54	01.09.2019 15:55		078 964 92 72	01.09.2019	YA-MI4a
13529		Thierry	MIKAMI	MIKAMI Thierry	Cpnv::CurrentStudent	Thierry.MIKAMI@cpnv.ch	Elève	Thierry.MIKAMI@cpnv.ch	191152	413819	12.09.2019 15:34	12.09.2019 15:35		754238519	26.09.2019	YAD-MI1a
13530		Julien	MILIAN	MILIAN Julien	Cpnv::CurrentStudent	Julien.MILIAN@cpnv.ch	Elève	Julien.MILIAN@cpnv.ch	191153	611269	12.09.2019 15:36	12.09.2019 15:36		798648468	26.09.2019	YAD-MI1a
8996		Damiano	MONDAINI	MONDAINI Damiano	Cpnv::CurrentStudent	Damiano.MONDAINI@cpnv.ch	Elève	Damiano.MONDAINI@cpnv.ch	204000	779191	02.09.2019 08:04	02.09.2019 08:05		787456060	02.09.2019	SM-MI4a
12031		Loic	MONNEY	MONNEY Loic	Cpnv::CurrentStudent	Loic.MONNEY@cpnv.ch	Elève	Loic.MONNEY@cpnv.ch	3204	874325	30.08.2019 11:59	30.08.2019 11:59		079 679 18 17	30.08.2019	PCFCM-MI2a
12032		Vanessa	MONNIER	MONNIER Vanessa	Cpnv::CurrentStudent	Vanessa.MONNIER@cpnv.ch	Elève	Vanessa.MONNIER@cpnv.ch	198553	804446	30.08.2019 11:59	30.08.2019 11:59		079 548 82 51	30.08.2019	PCFCM-MI2a
12033		Adrian	MONNIN	MONNIN Adrian	Cpnv::CurrentStudent	Adrian.MONNIN@cpnv.ch	Elève	Adrian.MONNIN@cpnv.ch	198602	371997	27.08.2019 15:59	27.08.2019 16:00		078  727 85 59	27.08.2019	SI-C1b
13549		Rui-Miguel	MONTEIRO-PEREIRA	MONTEIRO-PEREIRA Rui-Miguel	Cpnv::CurrentStudent	Rui-Miguel.MONTEIRO-PEREIRA@cpnv.ch	Elève	Rui-Miguel.MONTEIRO-PEREIRA@cpnv.ch	188987	578960	26.08.2019 11:05	26.08.2019 11:05		762406349	26.08.2019	SI-C1b
12037		Elea	MONTILLA	MONTILLA Elea	Cpnv::CurrentStudent	Elea.MONTILLA@cpnv.ch	Elève	Elea.MONTILLA@cpnv.ch	197371					076 506 29 09	13.09.2018	YCFCM-MI2a
10568		Rana	MOOSSA	MOOSSA Rana	Cpnv::CurrentStudent	Rana.MOOSSA@cpnv.ch	Elève	Rana.MOOSSA@cpnv.ch	145536	359240	02.09.2019 14:15	02.09.2019 14:15		076 457 07 19	02.09.2019	YS-MI3a
13553		Sebastien	MORAZ	MORAZ Sebastien	Cpnv::CurrentStudent	Sebastien.MORAZ@cpnv.ch	Elève	Sebastien.MORAZ@cpnv.ch	188986	626986	26.08.2019 11:08	26.08.2019 11:09		077 404 57 09	26.08.2019	SI-C1b
12039		Kylian	MORCHETTI	MORCHETTI Kylian	Cpnv::CurrentStudent	Kylian.MORCHETTI@cpnv.ch	Elève	Kylian.MORCHETTI@cpnv.ch	165427	982985	30.08.2019 16:15	30.08.2019 16:15		079 157 17 67	30.08.2019	YMMED-MI2a
9016		Rui-Manuel	MOTA-CARNEIRO	MOTA-CARNEIRO Rui-Manuel	Cpnv::CurrentStudent	Rui-Manuel.MOTA-CARNEIRO@cpnv.ch	Elève	Rui-Manuel.MOTA-CARNEIRO@cpnv.ch	203661					793674688	30.08.2019	SI-C4a
12051		Lysa	MOUKAGNA	MOUKAGNA Lysa	Cpnv::CurrentStudent	Lysa.MOUKAGNA@cpnv.ch	Elève	Lysa.MOUKAGNA@cpnv.ch	196226	552693	10.09.2019 09:55	10.09.2019 09:56		795387563	10.09.2019	YS-MI2a
12052		Imane	MOUTAOUAKEL	MOUTAOUAKEL Imane	Cpnv::CurrentStudent	Imane.MOUTAOUAKEL@cpnv.ch	Elève	Imane.MOUTAOUAKEL@cpnv.ch	217918					079 104 37 79	27.08.2018	SI-CA2a
10584		Nicolas	MULLER	MULLER Nicolas	Cpnv::CurrentStudent	Nicolas.MULLER@cpnv.ch	Elève	Nicolas.MULLER@cpnv.ch	135389	146967	03.08.2019 15:29	03.08.2019 15:29		079 122 99 76	03.08.2019	YAD-MI3a
13574		Guenael-Clement	MULLER	MULLER Guenael-Clement	Cpnv::CurrentStudent	Guenael-Clement.MULLER@cpnv.ch	Elève	Guenael-Clement.MULLER@cpnv.ch	188153					079 836 53 95	29.08.2019	YAD-MI1b
11125		Roxane	MULLER	MULLER Roxane	Cpnv::CurrentStudent	Roxane.MULLER@cpnv.ch	Elève	Roxane.MULLER@cpnv.ch	157039	928832	30.08.2019 17:20	30.08.2019 17:21		079 179 60 85	30.08.2019	PCFCM-MI3a
14011		Benjamin	MUMINOVIC	MUMINOVIC Benjamin	Cpnv::CurrentStudent	Benjamin.MUMINOVIC@cpnv.ch	Elève	Benjamin.MUMINOVIC@cpnv.ch	189999					079 307 53 02	10.09.2019	SI-MI1a
13575		Mathieu	MUNARI	MUNARI Mathieu	Cpnv::CurrentStudent	Mathieu.MUNARI@cpnv.ch	Elève	Mathieu.MUNARI@cpnv.ch	189885					078 943 63 64	29.08.2019	YE-MI1a
12059		Valon	MURSELI	MURSELI Valon	Cpnv::CurrentStudent	Valon.MURSELI@cpnv.ch	Elève	Valon.MURSELI@cpnv.ch	197308	992436	30.08.2019 11:58	30.08.2019 11:58		079 843 16 08	30.08.2019	PCFCM-MI2a
12065		Inthujaa	NAGARAJAH	NAGARAJAH Inthujaa	Cpnv::CurrentStudent	Inthujaa.NAGARAJAH@cpnv.ch	Elève	Inthujaa.NAGARAJAH@cpnv.ch	194769	656950	22.05.2019 21:32			076 295 71 41	22.05.2019	YCFCM-MI2a
9053		Dorian	NICLASS	NICLASS Dorian	Cpnv::CurrentStudent	Dorian.NICLASS@cpnv.ch	Elève	Dorian.NICLASS@cpnv.ch	203565						02.03.2018	SI-MI4b
13600		Enzo	NONNENMACHER	NONNENMACHER Enzo	Cpnv::CurrentStudent	Enzo.NONNENMACHER@cpnv.ch	Elève	Enzo.NONNENMACHER@cpnv.ch	188983	879054	28.08.2019 08:51	28.08.2019 08:52		079 895 91 73	28.08.2019	SI-C1b
6540		Jessica-Alexandra	NUNES-ALVES	NUNES-ALVES Jessica-Alexandra	Cpnv::CurrentStudent	Jessica-Alexandra.NUNES-ALVES@cpnv.ch	Elève	Jessica-Alexandra.NUNES-ALVES@cpnv.ch	147678					079 739 48 34	13.09.2018	YCFCM-MI2a
13611		Alec-Chima	OJI	OJI Alec-Chima	Cpnv::CurrentStudent	Alec-Chima.OJI@cpnv.ch	Elève	Alec-Chima.OJI@cpnv.ch	188981	568819	26.08.2019 11:31	26.08.2019 11:31		788804254	26.08.2019	SI-C1b
9077		Dylan	OLIVEIRA-RAMOS	OLIVEIRA-RAMOS Dylan	Cpnv::CurrentStudent	Dylan.OLIVEIRA-RAMOS@cpnv.ch	Elève	Dylan.OLIVEIRA-RAMOS@cpnv.ch	204228						02.03.2018	SI-C4b
9080		Romain	ONRUBIA	ONRUBIA Romain	Cpnv::CurrentStudent	Romain.ONRUBIA@cpnv.ch	Elève	Romain.ONRUBIA@cpnv.ch	100283					079 348 58 05	29.08.2019	SI-C3b
12113		Amandine	PACHE	PACHE Amandine	Cpnv::CurrentStudent	Amandine.PACHE@cpnv.ch	Elève	Amandine.PACHE@cpnv.ch	167877	802612	30.08.2019 11:57	30.08.2019 11:58		079 892 17 72	30.08.2019	PCFCM-MI2a
13626		Thelma	PACIFICO	PACIFICO Thelma	Cpnv::CurrentStudent	Thelma.PACIFICO@cpnv.ch	Elève	Thelma.PACIFICO@cpnv.ch	190982	455063	03.09.2019 15:13	03.09.2019 15:14		079 749 64 59	03.09.2019	YCFCM-MI1a
13632		Mickael	PAPAUX	PAPAUX Mickael	Cpnv::CurrentStudent	Mickael.PAPAUX@cpnv.ch	Elève	Mickael.PAPAUX@cpnv.ch	189974					244455128	30.09.2019	YA-MI1a
12123		Christopher	PARDO	PARDO Christopher	Cpnv::CurrentStudent	Christopher.PARDO@cpnv.ch	Elève	Christopher.PARDO@cpnv.ch	216003	748454	28.06.2019 16:49	28.06.2019 16:49		078 936 06 33	28.06.2019	SI-MI2a
13640		Marine	PATRIARCA	PATRIARCA Marine	Cpnv::CurrentStudent	Marine.PATRIARCA@cpnv.ch	Elève	Marine.PATRIARCA@cpnv.ch	189787	885394	29.08.2019 13:36	29.08.2019 13:37		791093202	29.08.2019	YS-MI1a
10630		Michael	PEDROLETTI	PEDROLETTI Michael	Cpnv::CurrentStudent	Michael.PEDROLETTI@cpnv.ch	Elève	Michael.PEDROLETTI@cpnv.ch	156599	504703	26.08.2019 20:17	26.08.2019 20:17		766167806	26.08.2019	SI-C3b
13646		Dylan	PERDIGOTO-FERNANDES	PERDIGOTO-FERNANDES Dylan	Cpnv::CurrentStudent	Dylan.PERDIGOTO-FERNANDES@cpnv.ch	Elève	Dylan.PERDIGOTO-FERNANDES@cpnv.ch	185038					079 684 44 29	04.09.2019	PCFCM-MI1a
13650		Jonatan	PERRET	PERRET Jonatan	Cpnv::CurrentStudent	Jonatan.PERRET@cpnv.ch	Elève	Jonatan.PERRET@cpnv.ch	190002	528613	26.08.2019 10:59	26.08.2019 10:59		079 948 40 53	26.08.2019	SI-MI1b
13653		Jessy	PERRIN	PERRIN Jessy	Cpnv::CurrentStudent	Jessy.PERRIN@cpnv.ch	Elève	Jessy.PERRIN@cpnv.ch	189810	328497	03.09.2019 15:09	03.09.2019 15:09		077 939 36 30	03.09.2019	YCFCM-MI1a
13659		Bastien	PETIGNAT	PETIGNAT Bastien	Cpnv::CurrentStudent	Bastien.PETIGNAT@cpnv.ch	Elève	Bastien.PETIGNAT@cpnv.ch	188312					076 246 10 21	29.08.2019	YAD-C1b
10645		Thomas	PETIT	PETIT Thomas	Cpnv::CurrentStudent	Thomas.PETIT@cpnv.ch	Elève	Thomas.PETIT@cpnv.ch	138038	653872	05.09.2019 11:01	05.09.2019 11:02		079 769 44 45	05.09.2019	YCFCM-MI3a
7623		Yan	PETTER	PETTER Yan	Cpnv::CurrentStudent	Yan.PETTER@cpnv.ch	Elève	Yan.PETTER@cpnv.ch	164779					791747404	30.08.2019	SI-C4a
12147		Elodie	PFISTER	PFISTER Elodie	Cpnv::CurrentStudent	Elodie.PFISTER@cpnv.ch	Elève	Elodie.PFISTER@cpnv.ch	197618	179438	30.08.2019 11:58	30.08.2019 11:59		079 505 62 94	30.08.2019	PCFCM-MI2a
12150		Nathan	PHILIPONA	PHILIPONA Nathan	Cpnv::CurrentStudent	Nathan.PHILIPONA@cpnv.ch	Elève	Nathan.PHILIPONA@cpnv.ch	166187	623296	30.08.2019 16:17	30.08.2019 16:17		079 157 17 00	30.08.2019	YMMED-MI2a
13667		Tess	PICCHIOTTINO	PICCHIOTTINO Tess	Cpnv::CurrentStudent	Tess.PICCHIOTTINO@cpnv.ch	Elève	Tess.PICCHIOTTINO@cpnv.ch	156095	864759	29.08.2019 13:36	29.08.2019 13:38		763602693	29.08.2019	YS-MI1a
13668		Celestin	PICCIN	PICCIN Celestin	Cpnv::CurrentStudent	Celestin.PICCIN@cpnv.ch	Elève	Celestin.PICCIN@cpnv.ch	223283	941507	26.08.2019 11:30	26.08.2019 11:31		787132577	26.08.2019	SI-CA1a
13670		Marine	PICHON	PICHON Marine	Cpnv::CurrentStudent	Marine.PICHON@cpnv.ch	Elève	Marine.PICHON@cpnv.ch	128181	822027	29.08.2019 13:38	29.08.2019 13:39		799249223	29.08.2019	YS-MI1a
12154		Benoit	PIERREHUMBERT	PIERREHUMBERT Benoit	Cpnv::CurrentStudent	Benoit.PIERREHUMBERT@cpnv.ch	Elève	Benoit.PIERREHUMBERT@cpnv.ch	216006	399104	05.06.2019 07:04	05.06.2019 07:06		079 898 39 35	05.06.2019	SI-C2a
9128		Theo	PILET	PILET Theo	Cpnv::CurrentStudent	Theo.PILET@cpnv.ch	Elève	Theo.PILET@cpnv.ch	116861					077 430 25 21	29.10.2018	YAD-MI4a
13673		Fabian	PILLONEL	PILLONEL Fabian	Cpnv::CurrentStudent	Fabian.PILLONEL@cpnv.ch	Elève	Fabian.PILLONEL@cpnv.ch	223284	527040	26.08.2019 11:28	26.08.2019 11:29		079 321 50 39	26.08.2019	SI-CA1a
10657		Alexandre	PILLOUD	PILLOUD Alexandre	Cpnv::CurrentStudent	Alexandre.PILLOUD@cpnv.ch	Elève	Alexandre.PILLOUD@cpnv.ch	130049	241494	13.08.2019 20:37	13.08.2019 20:38		079 409 83 96	13.08.2019	YAD-MI3a
12504		Pedro	PINTO	PINTO Pedro	Cpnv::CurrentStudent	Pedro.PINTO@cpnv.ch	Elève	Pedro.PINTO@cpnv.ch	216847	380063	26.08.2019 10:17	26.08.2019 10:17		078 652 28 48	26.08.2019	SI-C2a
13682		Cindy	PITTET	PITTET Cindy	Cpnv::CurrentStudent	Cindy.PITTET@cpnv.ch	Elève	Cindy.PITTET@cpnv.ch	132809	1227	29.08.2019 13:39	29.08.2019 13:40		792994190	29.08.2019	YS-MI1a
13683		Axel	PITTET	PITTET Axel	Cpnv::CurrentStudent	Axel.PITTET@cpnv.ch	Elève	Axel.PITTET@cpnv.ch	189046	129451	26.08.2019 11:50	26.08.2019 11:50		796897681	26.08.2019	SI-MI1a
12185		Tiago	QUERZOLI	QUERZOLI Tiago	Cpnv::CurrentStudent	Tiago.QUERZOLI@cpnv.ch	Elève	Tiago.QUERZOLI@cpnv.ch	197694					079 907 99 83	04.09.2018	YE-MI1a
10685		Mathieu	RABOT	RABOT Mathieu	Cpnv::CurrentStudent	Mathieu.RABOT@cpnv.ch	Elève	Mathieu.RABOT@cpnv.ch	156590	851150	27.08.2019 08:29	27.08.2019 08:29		765475476	27.08.2019	SI-C3a
10692		Rayan	RAMADANI	RAMADANI Rayan	Cpnv::CurrentStudent	Rayan.RAMADANI@cpnv.ch	Elève	Rayan.RAMADANI@cpnv.ch	211446	879238	03.09.2019 16:58	03.09.2019 16:58		078 836 95 45	03.09.2019	SM-MI3a
10694		Sevan	RAMIREZ	RAMIREZ Sevan	Cpnv::CurrentStudent	Sevan.RAMIREZ@cpnv.ch	Elève	Sevan.RAMIREZ@cpnv.ch	211403	487736	27.08.2019 15:08	27.08.2019 15:08		079 822 41 70	27.08.2019	YA-MI3a
12192		Stefan	RAMIREZ	RAMIREZ Stefan	Cpnv::CurrentStudent	Stefan.RAMIREZ@cpnv.ch	Elève	Stefan.RAMIREZ@cpnv.ch	198550	924193	29.08.2019 11:01	29.08.2019 11:01		786914717	29.08.2019	YA-MI2a
12193		Jose	RAMOS-PEREIRA-NETTO	RAMOS-PEREIRA-NETTO Jose	Cpnv::CurrentStudent	Jose.RAMOS-PEREIRA-NETTO@cpnv.ch	Elève	Jose.RAMOS-PEREIRA-NETTO@cpnv.ch	197054	225707	03.09.2019 10:24	03.09.2019 10:26		798871304	03.09.2019	YS-MI2a
13715		Timothee	RAPIN	RAPIN Timothee	Cpnv::CurrentStudent	Timothee.RAPIN@cpnv.ch	Elève	Timothee.RAPIN@cpnv.ch	126895	984243	26.08.2019 11:10	26.08.2019 11:11		787155101	26.08.2019	SI-C1b
10702		Eric	RAVAZ	RAVAZ Eric	Cpnv::CurrentStudent	Eric.RAVAZ@cpnv.ch	Elève	Eric.RAVAZ@cpnv.ch	120085	182452	24.08.2019 18:55	24.08.2019 18:56		076 722 09 34	24.08.2019	YE-MI3a
13717		Brayan	RAVESSOUD	RAVESSOUD Brayan	Cpnv::CurrentStudent	Brayan.RAVESSOUD@cpnv.ch	Elève	Brayan.RAVESSOUD@cpnv.ch	189027	96021	26.08.2019 11:00	26.08.2019 11:00		766039261	26.08.2019	SI-MI1b
10704	..\..\..\img\download.jpeg	Nathan	RAYBURN	RAYBURN Nathan	Cpnv::CurrentStudent	Nathan.RAYBURN@cpnv.ch	Elève	Nathan.RAYBURN@cpnv.ch	211041	275804	27.08.2019 08:28	27.08.2019 08:29		783500282	27.08.2019	SI-MI3a
10705		Almir	RAZIC	RAZIC Almir	Cpnv::CurrentStudent	Almir.RAZIC@cpnv.ch	Elève	Almir.RAZIC@cpnv.ch	211044	150193	29.08.2019 09:27	29.08.2019 09:27		076 216 15 71	29.08.2019	SI-C2b
10707		Samuel	RECHSTEINER	RECHSTEINER Samuel	Cpnv::CurrentStudent	Samuel.RECHSTEINER@cpnv.ch	Elève	Samuel.RECHSTEINER@cpnv.ch	131763	581684	30.08.2019 10:02	30.08.2019 10:02		079 932 19 80	30.08.2019	YAD-MI3a
12204		Amina	REDZIC	REDZIC Amina	Cpnv::CurrentStudent	Amina.REDZIC@cpnv.ch	Elève	Amina.REDZIC@cpnv.ch	162173	542143	30.08.2019 11:58	30.08.2019 11:59		079 109 93 87	30.08.2019	PCFCM-MI2a
10709		Luc-Andre-Malik	REGHIF	REGHIF Luc-Andre-Malik	Cpnv::CurrentStudent	Luc-Andre-Malik.REGHIF@cpnv.ch	Elève	Luc-Andre-Malik.REGHIF@cpnv.ch	137881	403218	28.08.2019 09:10	28.08.2019 09:10		079 223 21 02	28.08.2019	YMMED-MI3a
10967		Anais	REMY	REMY Anais	Cpnv::CurrentStudent	Anais.REMY@cpnv.ch	Elève	Anais.REMY@cpnv.ch	144491	85887	30.08.2019 17:18	30.08.2019 17:19		079 945 49 25	30.08.2019	PCFCM-MI3a
10712		Mathias	RENOULT	RENOULT Mathias	Cpnv::CurrentStudent	Mathias.RENOULT@cpnv.ch	Elève	Mathias.RENOULT@cpnv.ch	211046	821093	27.08.2019 12:02	27.08.2019 12:03		799458953	27.08.2019	SI-MI3b
13728		Alexandre	RICART	RICART Alexandre	Cpnv::CurrentStudent	Alexandre.RICART@cpnv.ch	Elève	Alexandre.RICART@cpnv.ch	142390	416909	28.08.2019 10:01	28.08.2019 10:01		798363874	28.08.2019	SI-CA1a
9185		Louis	RICHARD	RICHARD Louis	Cpnv::CurrentStudent	Louis.RICHARD@cpnv.ch	Elève	Louis.RICHARD@cpnv.ch	203569	246989	17.05.2019 11:45	17.05.2019 11:45		078 257 90 06	17.05.2019	SI-C3b
9190		Jessica	RIME	RIME Jessica	Cpnv::CurrentStudent	Jessica.RIME@cpnv.ch	Elève	Jessica.RIME@cpnv.ch	125330	19972	29.08.2019 16:11	29.08.2019 16:11		079 411 34 19	29.08.2019	YMMED-MI4a
12226		Evan	RIVERA	RIVERA Evan	Cpnv::CurrentStudent	Evan.RIVERA@cpnv.ch	Elève	Evan.RIVERA@cpnv.ch	199506	794969	23.09.2019 08:51	23.09.2019 08:52		078 829 57 03	23.09.2019	YAD-MI2a
13737		Gavrilo	RNJAK	RNJAK Gavrilo	Cpnv::CurrentStudent	Gavrilo.RNJAK@cpnv.ch	Elève	Gavrilo.RNJAK@cpnv.ch	189880					076 308 15 11	29.08.2019	YE-MI1a
13743		Coline-Germaine	ROCHAT	ROCHAT Coline-Germaine	Cpnv::CurrentStudent	Coline-Germaine.ROCHAT@cpnv.ch	Elève	Coline-Germaine.ROCHAT@cpnv.ch	186911	946729	29.08.2019 13:40	29.08.2019 13:41		774840184	29.08.2019	YS-MI1a
12230		Loris	ROCHAT	ROCHAT Loris	Cpnv::CurrentStudent	Loris.ROCHAT@cpnv.ch	Elève	Loris.ROCHAT@cpnv.ch	198613					079 895 10 70	13.09.2018	YCFCM-MI2a
13747		Luan	RODRIGUES	RODRIGUES Luan	Cpnv::CurrentStudent	Luan.RODRIGUES@cpnv.ch	Elève	Luan.RODRIGUES@cpnv.ch	189898					079 944 03 27	29.08.2019	YE-MI1a
9208		Brian	RODRIGUES-FRAGA	RODRIGUES-FRAGA Brian	Cpnv::CurrentStudent	Brian.RODRIGUES-FRAGA@cpnv.ch	Elève	Brian.RODRIGUES-FRAGA@cpnv.ch	203572	944650	08.09.2019 18:43	08.09.2019 18:43		795937088	08.09.2019	SI-C4a
12243		Samuel	ROLAND	ROLAND Samuel	Cpnv::CurrentStudent	Samuel.ROLAND@cpnv.ch	Elève	Samuel.ROLAND@cpnv.ch	216009	285960	03.07.2019 16:52	03.07.2019 16:53		077 480 39 56	03.07.2019	SI-MI2a
13756		Alexis	ROPRAZ	ROPRAZ Alexis	Cpnv::CurrentStudent	Alexis.ROPRAZ@cpnv.ch	Elève	Alexis.ROPRAZ@cpnv.ch	188853	631470	29.08.2019 09:00	29.08.2019 09:00		797273238	09.09.2019	SM-MI1c
12247		Sylvain	ROSAT	ROSAT Sylvain	Cpnv::CurrentStudent	Sylvain.ROSAT@cpnv.ch	Elève	Sylvain.ROSAT@cpnv.ch	216540	537715	30.08.2019 10:21	30.08.2019 10:22		787786225	30.08.2019	SM-MI2b
9220		Alessandro	ROSSI	ROSSI Alessandro	Cpnv::CurrentStudent	Alessandro.ROSSI@cpnv.ch	Elève	Alessandro.ROSSI@cpnv.ch	203673						22.05.2019	SI-C3b
12252		David	ROSSY	ROSSY David	Cpnv::CurrentStudent	David.ROSSY@cpnv.ch	Elève	David.ROSSY@cpnv.ch	217919					079 574 91 21	27.08.2018	SI-CA2a
12254		Cyril	ROTHLIN	ROTHLIN Cyril	Cpnv::CurrentStudent	Cyril.ROTHLIN@cpnv.ch	Elève	Cyril.ROTHLIN@cpnv.ch	162193	364941	21.08.2019 09:51	21.08.2019 09:51		079 331 93 76	21.08.2019	PCFCM-MI2a
12255		Bryan	ROUILLY	ROUILLY Bryan	Cpnv::CurrentStudent	Bryan.ROUILLY@cpnv.ch	Elève	Bryan.ROUILLY@cpnv.ch	198273					078 966 84 26	13.09.2018	YCFCM-MI2a
12257		David	ROULET	ROULET David	Cpnv::CurrentStudent	David.ROULET@cpnv.ch	Elève	David.ROULET@cpnv.ch	216835	130534	26.08.2019 10:36	26.08.2019 10:37		079 892 16 40 	26.08.2019	SI-C2a
13765		Basile	ROULET	ROULET Basile	Cpnv::CurrentStudent	Basile.ROULET@cpnv.ch	Elève	Basile.ROULET@cpnv.ch	223286	582630	26.08.2019 11:29	26.08.2019 11:29		078 783 70 93	26.08.2019	SI-CA1a
9221		Thomas	ROULET	ROULET Thomas	Cpnv::CurrentStudent	Thomas.ROULET@cpnv.ch	Elève	Thomas.ROULET@cpnv.ch	117198					079 104 72 82	29.10.2018	YAD-MI4a
10759		Jennifer	ROULIN	ROULIN Jennifer	Cpnv::CurrentStudent	Jennifer.ROULIN@cpnv.ch	Elève	Jennifer.ROULIN@cpnv.ch	129450	302673	30.08.2019 17:21	30.08.2019 17:21		079 400 10 95	30.08.2019	PCFCM-MI3a
12634		Antoine	ROULIN	ROULIN Antoine	Cpnv::CurrentStudent	Antoine.ROULIN@cpnv.ch	Elève	Antoine.ROULIN@cpnv.ch	219328	153577	26.08.2019 10:57	26.08.2019 10:58		764675999	26.08.2019	SI-C1b
13766		Charline	ROULIN	ROULIN Charline	Cpnv::CurrentStudent	Charline.ROULIN@cpnv.ch	Elève	Charline.ROULIN@cpnv.ch	189757					079 337 77 18	04.09.2019	PCFCM-MI1a
13767		Anastassia	ROVESCALLI	ROVESCALLI Anastassia	Cpnv::CurrentStudent	Anastassia.ROVESCALLI@cpnv.ch	Elève	Anastassia.ROVESCALLI@cpnv.ch	187157	133602	03.09.2019 15:09	03.09.2019 15:10		077 918 05 00	03.09.2019	YCFCM-MI1a
12260		Hugo	RUEMBELI	RUEMBELI Hugo	Cpnv::CurrentStudent	Hugo.RUEMBELI@cpnv.ch	Elève	Hugo.RUEMBELI@cpnv.ch	215990	149688	10.09.2019 15:29	10.09.2019 15:30		076 430 89 12	10.09.2019	SP-MI2a
9230		Ilan	RUIZ-DE-PORRAS	RUIZ-DE-PORRAS Ilan	Cpnv::CurrentStudent	Ilan.RUIZ-DE-PORRAS@cpnv.ch	Elève	Ilan.RUIZ-DE-PORRAS@cpnv.ch	203574						02.03.2018	SI-MI4b
13772		Nathan	RUMBELI	RUMBELI Nathan	Cpnv::CurrentStudent	Nathan.RUMBELI@cpnv.ch	Elève	Nathan.RUMBELI@cpnv.ch	190145						19.08.2019	YMMED-MI1a
7711		Lavdim	SADIKAJ	SADIKAJ Lavdim	Cpnv::CurrentStudent	Lavdim.SADIKAJ@cpnv.ch	Elève	Lavdim.SADIKAJ@cpnv.ch	165100					798986382	30.08.2019	SI-C4a
12283		Mathis	SANDOZ	SANDOZ Mathis	Cpnv::CurrentStudent	Mathis.SANDOZ@cpnv.ch	Elève	Mathis.SANDOZ@cpnv.ch	216543	86937	28.08.2019 11:44	28.08.2019 11:44		798618006	28.08.2019	SM-MI2a
12285		Yolan	SANTA	SANTA Yolan	Cpnv::CurrentStudent	Yolan.SANTA@cpnv.ch	Elève	Yolan.SANTA@cpnv.ch	199103	993655	30.08.2019 16:16	30.08.2019 16:16		079 157 16 85	30.08.2019	YMMED-MI2a
12571		Tiago	SANTOS	SANTOS Tiago	Cpnv::CurrentStudent	Tiago.SANTOS@cpnv.ch	Elève	Tiago.SANTOS@cpnv.ch	216800	592610	26.08.2019 11:52	26.08.2019 11:52		076 436 10 02	26.08.2019	SI-C1a
13790		Cindy	SANTOS-FERNANDES	SANTOS-FERNANDES Cindy	Cpnv::CurrentStudent	Cindy.SANTOS-FERNANDES@cpnv.ch	Elève	Cindy.SANTOS-FERNANDES@cpnv.ch	188687					079 107 15 70	04.09.2019	PCFCM-MI1a
9242		Leandro	SARAIVA-MAIA	SARAIVA-MAIA Leandro	Cpnv::CurrentStudent	Leandro.SARAIVA-MAIA@cpnv.ch	Elève	Leandro.SARAIVA-MAIA@cpnv.ch	203667					796384381	30.08.2019	SI-C4a
12301		Lamia	SCHAECHTELIN	SCHAECHTELIN Lamia	Cpnv::CurrentStudent	Lamia.SCHAECHTELIN@cpnv.ch	Elève	Lamia.SCHAECHTELIN@cpnv.ch	194370	746776	10.09.2019 09:55	10.09.2019 09:56		798745968	10.09.2019	YS-MI2a
12641		Virginie	SCHEFFEL	SCHEFFEL Virginie	Cpnv::CurrentStudent	Virginie.SCHEFFEL@cpnv.ch	Elève	Virginie.SCHEFFEL@cpnv.ch	192619	985897	30.08.2019 11:58	30.08.2019 11:59		077 924 72 30	30.08.2019	PCFCM-MI2a
13797		Dounia-Ella	SCHMID	SCHMID Dounia-Ella	Cpnv::CurrentStudent	Dounia-Ella.SCHMID@cpnv.ch	Elève	Dounia-Ella.SCHMID@cpnv.ch	190109	249752	03.09.2019 15:10	03.09.2019 15:10		079 379 00 56	03.09.2019	YCFCM-MI1a
13799		Kimberly	SCHMIDT	SCHMIDT Kimberly	Cpnv::CurrentStudent	Kimberly.SCHMIDT@cpnv.ch	Elève	Kimberly.SCHMIDT@cpnv.ch	184634	155652	29.08.2019 13:42	29.08.2019 13:44		799315005	29.08.2019	YS-MI1a
10794		Robin	SCHMUTZ	SCHMUTZ Robin	Cpnv::CurrentStudent	Robin.SCHMUTZ@cpnv.ch	Elève	Robin.SCHMUTZ@cpnv.ch	211049	493734	27.08.2019 08:29			798270049	27.08.2019	SI-MI3a
12315		Jordan	SCHOTT	SCHOTT Jordan	Cpnv::CurrentStudent	Jordan.SCHOTT@cpnv.ch	Elève	Jordan.SCHOTT@cpnv.ch	198577	3423	25.08.2019 19:31	25.08.2019 19:31		798992353	25.08.2019	YA-MI2a
13804		Nathan	SCHULE	SCHULE Nathan	Cpnv::CurrentStudent	Nathan.SCHULE@cpnv.ch	Elève	Nathan.SCHULE@cpnv.ch	189918	664936	30.09.2019 15:10	30.09.2019 15:10		792144704	30.09.2019	YA-MI1a
10796		Florian	SCHULE	SCHULE Florian	Cpnv::CurrentStudent	Florian.SCHULE@cpnv.ch	Elève	Florian.SCHULE@cpnv.ch	131698					079 102 88 05	29.10.2018	YAD-MI3a
13808		Nathan	SCHWEICKHARDT	SCHWEICKHARDT Nathan	Cpnv::CurrentStudent	Nathan.SCHWEICKHARDT@cpnv.ch	Elève	Nathan.SCHWEICKHARDT@cpnv.ch	189618	810357	25.09.2019 17:48			076 200 91 12	25.09.2019	YAD-MI1b
9267		Kilian	SCYBOZ	SCYBOZ Kilian	Cpnv::CurrentStudent	Kilian.SCYBOZ@cpnv.ch	Elève	Kilian.SCYBOZ@cpnv.ch	104272	187988	29.08.2019 16:03	29.08.2019 16:03		079 871 26 80	29.08.2019	YMMED-MI4a
13813		Besjan	SEJRANI	SEJRANI Besjan	Cpnv::CurrentStudent	Besjan.SEJRANI@cpnv.ch	Elève	Besjan.SEJRANI@cpnv.ch	144072	455048	26.08.2019 11:37	26.08.2019 11:37		079 964 00 46	26.08.2019	SI-CA1a
10804		Anusha	SELVARAJAH	SELVARAJAH Anusha	Cpnv::CurrentStudent	Anusha.SELVARAJAH@cpnv.ch	Elève	Anusha.SELVARAJAH@cpnv.ch	146552	839738	30.08.2019 17:33	30.08.2019 17:34		078 631 62 58	30.08.2019	YCFCM-MI1a
9277		Kujtim	SHEHI	SHEHI Kujtim	Cpnv::CurrentStudent	Kujtim.SHEHI@cpnv.ch	Elève	Kujtim.SHEHI@cpnv.ch	204001						17.08.2016	SM-MI4b
12333		Aiea	SHUHANE	SHUHANE Aiea	Cpnv::CurrentStudent	Aiea.SHUHANE@cpnv.ch	Elève	Aiea.SHUHANE@cpnv.ch	198968	810493	30.08.2019 18:24	30.08.2019 18:24		792061150	30.08.2019	YS-MI2a
13832		Joris	SIMON	SIMON Joris	Cpnv::CurrentStudent	Joris.SIMON@cpnv.ch	Elève	Joris.SIMON@cpnv.ch	190653					079 418 12 62	29.08.2019	YAD-MI1b
10822		Ludovic	SIMOND	SIMOND Ludovic	Cpnv::CurrentStudent	Ludovic.SIMOND@cpnv.ch	Elève	Ludovic.SIMOND@cpnv.ch	131766	247958	06.09.2019 17:20	06.09.2019 17:21		079 412 19 61	06.09.2019	YAD-MI3a
12343		Arunthathy	SINNATHAMBY	SINNATHAMBY Arunthathy	Cpnv::CurrentStudent	Arunthathy.SINNATHAMBY@cpnv.ch	Elève	Arunthathy.SINNATHAMBY@cpnv.ch	85309					024 534 74 89	13.09.2018	YCFCM-MI2a
10828		Stevan	SISMANOVIC	SISMANOVIC Stevan	Cpnv::CurrentStudent	Stevan.SISMANOVIC@cpnv.ch	Elève	Stevan.SISMANOVIC@cpnv.ch	211452	940657	21.09.2019 13:36	21.09.2019 13:36		076 394 01 10	21.09.2019	YCFCM-MI1a
10830		Miguel	SOARES	SOARES Miguel	Cpnv::CurrentStudent	Miguel.SOARES@cpnv.ch	Elève	Miguel.SOARES@cpnv.ch	211335	800130	26.08.2019 11:49	26.08.2019 11:50		078 778 35 92	26.08.2019	SI-C2a
9764		Ophelie	SOLER	SOLER Ophelie	Cpnv::CurrentStudent	Ophelie.SOLER@cpnv.ch	Elève	Ophelie.SOLER@cpnv.ch	126462	798981	29.08.2019 16:11	29.08.2019 16:12		079 353 83 82	29.08.2019	YMMED-MI4a
12353		Stephane	SORDET	SORDET Stephane	Cpnv::CurrentStudent	Stephane.SORDET@cpnv.ch	Elève	Stephane.SORDET@cpnv.ch	217920					792535492	27.08.2018	SI-CA2a
12356		Flavio	SOVILLA	SOVILLA Flavio	Cpnv::CurrentStudent	Flavio.SOVILLA@cpnv.ch	Elève	Flavio.SOVILLA@cpnv.ch	4652	781370	03.09.2019 13:35	03.09.2019 13:35		079.296.43.39	03.09.2019	SI-CA2a
10841		Olivia	STAREMBERG	STAREMBERG Olivia	Cpnv::CurrentStudent	Olivia.STAREMBERG@cpnv.ch	Elève	Olivia.STAREMBERG@cpnv.ch	129381	110597	30.08.2019 17:21	30.08.2019 17:23		076 435 49 96	30.08.2019	PCFCM-MI3a
13854		Lidia	STIERLI	STIERLI Lidia	Cpnv::CurrentStudent	Lidia.STIERLI@cpnv.ch	Elève	Lidia.STIERLI@cpnv.ch	184221	728450	29.08.2019 13:44	29.08.2019 13:44		789258591	29.08.2019	YS-MI1a
13855		Ivan	STOJILOVIC	STOJILOVIC Ivan	Cpnv::CurrentStudent	Ivan.STOJILOVIC@cpnv.ch	Elève	Ivan.STOJILOVIC@cpnv.ch	189022	411873	26.08.2019 11:07	26.08.2019 11:07		767028803	26.08.2019	SI-MI1b
12366		Nicolas	SUESS	SUESS Nicolas	Cpnv::CurrentStudent	Nicolas.SUESS@cpnv.ch	Elève	Nicolas.SUESS@cpnv.ch	10604	363151	29.08.2019 13:16	29.08.2019 13:17		763926360	29.08.2019	YA-MI2a
13869		Arlindo	TAVARES-VARELA	TAVARES-VARELA Arlindo	Cpnv::CurrentStudent	Arlindo.TAVARES-VARELA@cpnv.ch	Elève	Arlindo.TAVARES-VARELA@cpnv.ch	188676	206094	26.08.2019 11:36	26.08.2019 11:36		799360826	26.08.2019	SI-CA1a
9327		Kevin	TEIXEIRA	TEIXEIRA Kevin	Cpnv::CurrentStudent	Kevin.TEIXEIRA@cpnv.ch	Elève	Kevin.TEIXEIRA@cpnv.ch	203577					774303848	30.08.2019	SI-C3b
10857		Damien	TERCIER	TERCIER Damien	Cpnv::CurrentStudent	Damien.TERCIER@cpnv.ch	Elève	Damien.TERCIER@cpnv.ch	129945	292141	28.08.2019 09:12	28.08.2019 09:12		079 401 92 74	28.08.2019	YMMED-MI3a
12388		Julien	TERRAPON	TERRAPON Julien	Cpnv::CurrentStudent	Julien.TERRAPON@cpnv.ch	Elève	Julien.TERRAPON@cpnv.ch	217921					079 854 72 47	27.08.2018	SI-CA2a
13879		Solomon	THANABALASINGAM	THANABALASINGAM Solomon	Cpnv::CurrentStudent	Solomon.THANABALASINGAM@cpnv.ch	Elève	Solomon.THANABALASINGAM@cpnv.ch	189382					077 981 96 22	04.09.2019	PCFCM-MI1a
10866		Cleo-Hayley	THOMPSON	THOMPSON Cleo-Hayley	Cpnv::CurrentStudent	Cleo-Hayley.THOMPSON@cpnv.ch	Elève	Cleo-Hayley.THOMPSON@cpnv.ch	210158					079 678 05 29	29.10.2018	YAD-MI3a
10874		Daniela-Priscila	TOMAS-MARREIROS	TOMAS-MARREIROS Daniela-Priscila	Cpnv::CurrentStudent	Daniela-Priscila.TOMAS-MARREIROS@cpnv.ch	Elève	Daniela-Priscila.TOMAS-MARREIROS@cpnv.ch	144532	480916	05.09.2019 11:02	05.09.2019 11:02		077 970 78 12	05.09.2019	YCFCM-MI3a
10881		Keanu	TROSSET	TROSSET Keanu	Cpnv::CurrentStudent	Keanu.TROSSET@cpnv.ch	Elève	Keanu.TROSSET@cpnv.ch	156593	363396	27.08.2019 10:47	27.08.2019 10:47		798584973	27.08.2019	SI-C3b
12405		Ander	URIEL-GLARIA	URIEL-GLARIA Ander	Cpnv::CurrentStudent	Ander.URIEL-GLARIA@cpnv.ch	Elève	Ander.URIEL-GLARIA@cpnv.ch	217619	629444	29.08.2019 09:21	29.08.2019 09:22		078 663 21 63	29.08.2019	SI-MI2b
7794		Sacha	USAN	USAN Sacha	Cpnv::CurrentStudent	Sacha.USAN@cpnv.ch	Elève	Sacha.USAN@cpnv.ch	166494						02.03.2018	SI-C4b
10888		Johnny	VACA-JARAMILLO	VACA-JARAMILLO Johnny	Cpnv::CurrentStudent	Johnny.VACA-JARAMILLO@cpnv.ch	Elève	Johnny.VACA-JARAMILLO@cpnv.ch	211055	590285	28.08.2019 10:47	28.08.2019 10:47		076 331 70 57	28.08.2019	SI-C2a
10310		David-Manuel	VAROSO-GOMES	VAROSO-GOMES David-Manuel	Cpnv::CurrentStudent	David-Manuel.VAROSO-GOMES@cpnv.ch	Elève	David-Manuel.VAROSO-GOMES@cpnv.ch	211341	774060	29.08.2019 09:27	29.08.2019 09:28		078 756 98 63	29.08.2019	SI-C2b
12411		Kevin	VAUCHER	VAUCHER Kevin	Cpnv::CurrentStudent	Kevin.VAUCHER@cpnv.ch	Elève	Kevin.VAUCHER@cpnv.ch	216012	714266	19.05.2019 16:33	19.05.2019 16:35		079 433 92 96	19.05.2019	SI-MI2a
13916		Tatjana	VELJKOVIC	VELJKOVIC Tatjana	Cpnv::CurrentStudent	Tatjana.VELJKOVIC@cpnv.ch	Elève	Tatjana.VELJKOVIC@cpnv.ch	185376	739895	02.10.2019 18:04	02.10.2019 18:04		079 249 23 33	02.10.2019	YCFCM-MI1a
10907		Nathanael	VERRI	VERRI Nathanael	Cpnv::CurrentStudent	Nathanael.VERRI@cpnv.ch	Elève	Nathanael.VERRI@cpnv.ch	157639	75877	02.09.2019 14:17	02.09.2019 14:18		079 900 07 40	02.09.2019	YS-MI3a
12421		Tim	VIAL	VIAL Tim	Cpnv::CurrentStudent	Tim.VIAL@cpnv.ch	Elève	Tim.VIAL@cpnv.ch	198562	153702	24.08.2019 15:23	24.08.2019 15:23		799076600	24.08.2019	YA-MI2a
14044		Viktoria	VIAL	VIAL Viktoria	Cpnv::CurrentStudent	Viktoria.VIAL@cpnv.ch	Elève	Viktoria.VIAL@cpnv.ch	183248	72599	29.08.2019 13:46	29.08.2019 13:47		798618752	29.08.2019	YS-MI1a
9366		Johan	VOLAND	VOLAND Johan	Cpnv::CurrentStudent	Johan.VOLAND@cpnv.ch	Elève	Johan.VOLAND@cpnv.ch	203670					774170807	30.08.2019	SI-C4a
11105		Sven	VOLERY	VOLERY Sven	Cpnv::CurrentStudent	Sven.VOLERY@cpnv.ch	Elève	Sven.VOLERY@cpnv.ch	156849	941541	26.08.2019 11:39	26.08.2019 11:39		079 847 49 10	26.08.2019	SI-C1a
12430		Axel	VOLET	VOLET Axel	Cpnv::CurrentStudent	Axel.VOLET@cpnv.ch	Elève	Axel.VOLET@cpnv.ch	199394	63533	24.05.2019 11:49	24.05.2019 11:49		079 905 74 95	24.05.2019	PCFCM-MI2a
13937		Aline	VUILLERMET	VUILLERMET Aline	Cpnv::CurrentStudent	Aline.VUILLERMET@cpnv.ch	Elève	Aline.VUILLERMET@cpnv.ch	187593	570458	03.09.2019 15:09	03.09.2019 15:10		079 406 46 04	03.09.2019	YCFCM-MI1a
13938		Maeva	VULLIENS	VULLIENS Maeva	Cpnv::CurrentStudent	Maeva.VULLIENS@cpnv.ch	Elève	Maeva.VULLIENS@cpnv.ch	186847	744866	29.08.2019 13:47	29.08.2019 13:47		765322101	29.08.2019	YS-MI1a
13940		Nikita	WAFLER	WAFLER Nikita	Cpnv::CurrentStudent	Nikita.WAFLER@cpnv.ch	Elève	Nikita.WAFLER@cpnv.ch	190437	276278	29.08.2019 13:48	29.08.2019 13:49		766902594	29.08.2019	YS-MI1a
9374		Matthieu	WAGOUN	WAGOUN Matthieu	Cpnv::CurrentStudent	Matthieu.WAGOUN@cpnv.ch	Elève	Matthieu.WAGOUN@cpnv.ch	117164					079 766 12 38	29.10.2018	YAD-MI4a
12439		Julien	WALPEN	WALPEN Julien	Cpnv::CurrentStudent	Julien.WALPEN@cpnv.ch	Elève	Julien.WALPEN@cpnv.ch	161813	88858	23.09.2019 08:45	23.09.2019 08:47		079 610 42 20	23.09.2019	YAD-MI2a
13944		Mathias	WEBER	WEBER Mathias	Cpnv::CurrentStudent	Mathias.WEBER@cpnv.ch	Elève	Mathias.WEBER@cpnv.ch	191129	227226	25.09.2019 17:21	25.09.2019 17:22		079 873 25 81	25.09.2019	YAD-MI1b
12442		Theo	WELKER	WELKER Theo	Cpnv::CurrentStudent	Theo.WELKER@cpnv.ch	Elève	Theo.WELKER@cpnv.ch	198552	197621	26.08.2019 13:36	26.08.2019 13:37		079 887 49 39	26.08.2019	YE-MI2a
13948		Patrice	WENGER	WENGER Patrice	Cpnv::CurrentStudent	Patrice.WENGER@cpnv.ch	Elève	Patrice.WENGER@cpnv.ch	190655	876218	26.09.2019 07:50	26.09.2019 07:51		078 669 27 46	26.09.2019	YAD-MI1b
12445		Gwenael	WEST	WEST Gwenael	Cpnv::CurrentStudent	Gwenael.WEST@cpnv.ch	Elève	Gwenael.WEST@cpnv.ch	216014	898354	29.08.2019 09:19	29.08.2019 09:21		078 637 81 36	29.08.2019	SI-C2b
10943		Theo	WIDMER	WIDMER Theo	Cpnv::CurrentStudent	Theo.WIDMER@cpnv.ch	Elève	Theo.WIDMER@cpnv.ch	129290	908489	05.09.2019 11:03	05.09.2019 11:03		078 801 02 32	05.09.2019	YCFCM-MI3a
9386		Matthieu	WOLF	WOLF Matthieu	Cpnv::CurrentStudent	Matthieu.WOLF@cpnv.ch	Elève	Matthieu.WOLF@cpnv.ch	202968					079 213 09 37	29.10.2018	YAD-MI4a
10945		Nathan	WULLIAMOZ	WULLIAMOZ Nathan	Cpnv::CurrentStudent	Nathan.WULLIAMOZ@cpnv.ch	Elève	Nathan.WULLIAMOZ@cpnv.ch	130786	179422	30.08.2019 10:02	30.08.2019 10:02		078 671 40 69	30.08.2019	YAD-MI3a
10948		Jeremy	YERSIN	YERSIN Jeremy	Cpnv::CurrentStudent	Jeremy.YERSIN@cpnv.ch	Elève	Jeremy.YERSIN@cpnv.ch	130371	987412	30.08.2019 11:41	30.08.2019 11:42		079 644 20 93	30.08.2019	YAD-MI3a
13960		Theo	YOSHIURA	YOSHIURA Theo	Cpnv::CurrentStudent	Theo.YOSHIURA@cpnv.ch	Elève	Theo.YOSHIURA@cpnv.ch	223288	528870	26.08.2019 11:32	26.08.2019 11:32		789769096	26.08.2019	SI-CA1a
12459		Altin	ZILI	ZILI Altin	Cpnv::CurrentStudent	Altin.ZILI@cpnv.ch	Elève	Altin.ZILI@cpnv.ch	216015	956145	26.08.2019 10:11	26.08.2019 10:11		076 569 99 78	26.08.2019	SI-MI2a
12460		Valentin	ZINGG	ZINGG Valentin	Cpnv::CurrentStudent	Valentin.ZINGG@cpnv.ch	Elève	Valentin.ZINGG@cpnv.ch	216801	546714	07.10.2019 19:22	07.10.2019 19:22		791576194	07.10.2019	SI-C2b
9398		Leo	ZMOOS	ZMOOS Leo	Cpnv::CurrentStudent	Leo.ZMOOS@cpnv.ch	Elève	Leo.ZMOOS@cpnv.ch	203580						02.03.2018	SI-MI4b
13968		Artem	ZROBOK	ZROBOK Artem	Cpnv::CurrentStudent	Artem.ZROBOK@cpnv.ch	Elève	Artem.ZROBOK@cpnv.ch	189968	7710	30.09.2019 15:15	30.09.2019 15:15		764357227	30.09.2019	YA-MI1a
10964		Simon	ZURCHER	ZURCHER Simon	Cpnv::CurrentStudent	Simon.ZURCHER@cpnv.ch	Elève	Simon.ZURCHER@cpnv.ch	211454	154686	06.09.2019 16:09	06.09.2019 16:10		078 653 77 88	06.09.2019	SM-MI3a
10965		Jeremie	ZURFLUH	ZURFLUH Jeremie	Cpnv::CurrentStudent	Jeremie.ZURFLUH@cpnv.ch	Elève	Jeremie.ZURFLUH@cpnv.ch	127643	281498	01.07.2019 16:02	01.07.2019 16:02		079 670 78 89	01.07.2019	YMMED-MI3a
